%YAML 1.1
%TAG !u! tag:unity3d.com,2011:
--- !u!74 &7400000
AnimationClip:
  m_ObjectHideFlags: 0
  m_CorrespondingSourceObject: {fileID: 0}
  m_PrefabInstance: {fileID: 0}
  m_PrefabAsset: {fileID: 0}
  m_Name: JackCrush
  serializedVersion: 6
  m_Legacy: 0
  m_Compressed: 0
  m_UseHighQualityCurve: 1
  m_RotationCurves: []
  m_CompressedRotationCurves: []
  m_EulerCurves: []
  m_PositionCurves: []
  m_ScaleCurves: []
  m_FloatCurves: []
  m_PPtrCurves:
  - curve:
    - time: 0
      value: {fileID: -6269409835240284189, guid: 17990a05603078046bf116228945e365,
        type: 3}
    - time: 0.083333336
      value: {fileID: -2921051191338102763, guid: 17990a05603078046bf116228945e365,
        type: 3}
    - time: 0.16666667
      value: {fileID: 6860718268457391887, guid: 17990a05603078046bf116228945e365,
        type: 3}
    - time: 0.25
      value: {fileID: -6702459555908550356, guid: 17990a05603078046bf116228945e365,
        type: 3}
    - time: 0.33333334
      value: {fileID: -5325475410694447846, guid: 17990a05603078046bf116228945e365,
        type: 3}
    - time: 0.41666666
      value: {fileID: -7629136397324038422, guid: 17990a05603078046bf116228945e365,
        type: 3}
    - time: 0.5
      value: {fileID: 7406467565800989108, guid: 17990a05603078046bf116228945e365,
        type: 3}
    - time: 0.5833333
      value: {fileID: 2323676517221757084, guid: 17990a05603078046bf116228945e365,
        type: 3}
    - time: 0.6666667
      value: {fileID: -7062496286799670836, guid: 17990a05603078046bf116228945e365,
        type: 3}
    - time: 0.75
      value: {fileID: -1520361341557078644, guid: 17990a05603078046bf116228945e365,
        type: 3}
    - time: 0.8333333
      value: {fileID: 7126424447537957765, guid: 17990a05603078046bf116228945e365,
        type: 3}
    - time: 0.9166667
      value: {fileID: -5002246044282412055, guid: 17990a05603078046bf116228945e365,
        type: 3}
    - time: 1
      value: {fileID: 7131437358408356474, guid: 17990a05603078046bf116228945e365,
        type: 3}
    - time: 1.0833334
      value: {fileID: -8196872375140498248, guid: 17990a05603078046bf116228945e365,
        type: 3}
    - time: 1.1666666
      value: {fileID: -6809517015935782894, guid: 17990a05603078046bf116228945e365,
        type: 3}
    - time: 1.25
      value: {fileID: -407207075011354240, guid: 17990a05603078046bf116228945e365,
        type: 3}
    attribute: m_Sprite
    path: 
    classID: 212
    script: {fileID: 0}
  m_SampleRate: 12
  m_WrapMode: 0
  m_Bounds:
    m_Center: {x: 0, y: 0, z: 0}
    m_Extent: {x: 0, y: 0, z: 0}
  m_ClipBindingConstant:
    genericBindings:
    - serializedVersion: 2
      path: 0
      attribute: 0
      script: {fileID: 0}
      typeID: 212
      customType: 23
      isPPtrCurve: 1
    pptrCurveMapping:
    - {fileID: -6269409835240284189, guid: 17990a05603078046bf116228945e365, type: 3}
    - {fileID: -2921051191338102763, guid: 17990a05603078046bf116228945e365, type: 3}
    - {fileID: 6860718268457391887, guid: 17990a05603078046bf116228945e365, type: 3}
    - {fileID: -6702459555908550356, guid: 17990a05603078046bf116228945e365, type: 3}
    - {fileID: -5325475410694447846, guid: 17990a05603078046bf116228945e365, type: 3}
    - {fileID: -7629136397324038422, guid: 17990a05603078046bf116228945e365, type: 3}
    - {fileID: 7406467565800989108, guid: 17990a05603078046bf116228945e365, type: 3}
    - {fileID: 2323676517221757084, guid: 17990a05603078046bf116228945e365, type: 3}
    - {fileID: -7062496286799670836, guid: 17990a05603078046bf116228945e365, type: 3}
    - {fileID: -1520361341557078644, guid: 17990a05603078046bf116228945e365, type: 3}
    - {fileID: 7126424447537957765, guid: 17990a05603078046bf116228945e365, type: 3}
    - {fileID: -5002246044282412055, guid: 17990a05603078046bf116228945e365, type: 3}
    - {fileID: 7131437358408356474, guid: 17990a05603078046bf116228945e365, type: 3}
    - {fileID: -8196872375140498248, guid: 17990a05603078046bf116228945e365, type: 3}
    - {fileID: -6809517015935782894, guid: 17990a05603078046bf116228945e365, type: 3}
    - {fileID: -407207075011354240, guid: 17990a05603078046bf116228945e365, type: 3}
  m_AnimationClipSettings:
    serializedVersion: 2
    m_AdditiveReferencePoseClip: {fileID: 0}
    m_AdditiveReferencePoseTime: 0
    m_StartTime: 0
    m_StopTime: 1.3333334
    m_OrientationOffsetY: 0
    m_Level: 0
    m_CycleOffset: 0
    m_HasAdditiveReferencePose: 0
    m_LoopTime: 1
    m_LoopBlend: 0
    m_LoopBlendOrientation: 0
    m_LoopBlendPositionY: 0
    m_LoopBlendPositionXZ: 0
    m_KeepOriginalOrientation: 0
    m_KeepOriginalPositionY: 1
    m_KeepOriginalPositionXZ: 0
    m_HeightFromFeet: 0
    m_Mirror: 0
  m_EditorCurves: []
  m_EulerEditorCurves: []
  m_HasGenericRootTransform: 0
  m_HasMotionFloatCurves: 0
  m_Events: []
