%YAML 1.1
%TAG !u! tag:unity3d.com,2011:
--- !u!74 &7400000
AnimationClip:
  m_ObjectHideFlags: 0
  m_CorrespondingSourceObject: {fileID: 0}
  m_PrefabInstance: {fileID: 0}
  m_PrefabAsset: {fileID: 0}
  m_Name: JackIdl
  serializedVersion: 6
  m_Legacy: 0
  m_Compressed: 0
  m_UseHighQualityCurve: 1
  m_RotationCurves: []
  m_CompressedRotationCurves: []
  m_EulerCurves: []
  m_PositionCurves: []
  m_ScaleCurves: []
  m_FloatCurves: []
  m_PPtrCurves:
  - curve:
    - time: 0
      value: {fileID: -381467358710492498, guid: 726099b337cd4564cad59a188e170ae9,
        type: 3}
    - time: 0.083333336
      value: {fileID: 4015507812653865649, guid: 726099b337cd4564cad59a188e170ae9,
        type: 3}
    - time: 0.16666667
      value: {fileID: -4848961339618473400, guid: 726099b337cd4564cad59a188e170ae9,
        type: 3}
    - time: 0.25
      value: {fileID: 3002818471688914640, guid: 726099b337cd4564cad59a188e170ae9,
        type: 3}
    - time: 0.33333334
      value: {fileID: -6227915665654902162, guid: 726099b337cd4564cad59a188e170ae9,
        type: 3}
    - time: 0.41666666
      value: {fileID: 4984972893114648876, guid: 726099b337cd4564cad59a188e170ae9,
        type: 3}
    - time: 0.5
      value: {fileID: 9056150773394050507, guid: 726099b337cd4564cad59a188e170ae9,
        type: 3}
    - time: 0.5833333
      value: {fileID: 4265048172991973342, guid: 726099b337cd4564cad59a188e170ae9,
        type: 3}
    attribute: m_Sprite
    path: 
    classID: 212
    script: {fileID: 0}
  m_SampleRate: 12
  m_WrapMode: 0
  m_Bounds:
    m_Center: {x: 0, y: 0, z: 0}
    m_Extent: {x: 0, y: 0, z: 0}
  m_ClipBindingConstant:
    genericBindings:
    - serializedVersion: 2
      path: 0
      attribute: 0
      script: {fileID: 0}
      typeID: 212
      customType: 23
      isPPtrCurve: 1
    pptrCurveMapping:
    - {fileID: -381467358710492498, guid: 726099b337cd4564cad59a188e170ae9, type: 3}
    - {fileID: 4015507812653865649, guid: 726099b337cd4564cad59a188e170ae9, type: 3}
    - {fileID: -4848961339618473400, guid: 726099b337cd4564cad59a188e170ae9, type: 3}
    - {fileID: 3002818471688914640, guid: 726099b337cd4564cad59a188e170ae9, type: 3}
    - {fileID: -6227915665654902162, guid: 726099b337cd4564cad59a188e170ae9, type: 3}
    - {fileID: 4984972893114648876, guid: 726099b337cd4564cad59a188e170ae9, type: 3}
    - {fileID: 9056150773394050507, guid: 726099b337cd4564cad59a188e170ae9, type: 3}
    - {fileID: 4265048172991973342, guid: 726099b337cd4564cad59a188e170ae9, type: 3}
  m_AnimationClipSettings:
    serializedVersion: 2
    m_AdditiveReferencePoseClip: {fileID: 0}
    m_AdditiveReferencePoseTime: 0
    m_StartTime: 0
    m_StopTime: 0.6666666
    m_OrientationOffsetY: 0
    m_Level: 0
    m_CycleOffset: 0
    m_HasAdditiveReferencePose: 0
    m_LoopTime: 1
    m_LoopBlend: 0
    m_LoopBlendOrientation: 0
    m_LoopBlendPositionY: 0
    m_LoopBlendPositionXZ: 0
    m_KeepOriginalOrientation: 0
    m_KeepOriginalPositionY: 1
    m_KeepOriginalPositionXZ: 0
    m_HeightFromFeet: 0
    m_Mirror: 0
  m_EditorCurves: []
  m_EulerEditorCurves: []
  m_HasGenericRootTransform: 0
  m_HasMotionFloatCurves: 0
  m_Events: []
