%YAML 1.1
%TAG !u! tag:unity3d.com,2011:
--- !u!1 &264894998722059312
GameObject:
  m_ObjectHideFlags: 0
  m_CorrespondingSourceObject: {fileID: 0}
  m_PrefabInstance: {fileID: 0}
  m_PrefabAsset: {fileID: 0}
  serializedVersion: 6
  m_Component:
  - component: {fileID: 6819861549778696551}
  - component: {fileID: 2946981789946227682}
  - component: {fileID: 830383251612918140}
  m_Layer: 31
  m_Name: Layer1
  m_TagString: Untagged
  m_Icon: {fileID: 0}
  m_NavMeshLayer: 0
  m_StaticEditorFlags: 0
  m_IsActive: 1
--- !u!4 &6819861549778696551
Transform:
  m_ObjectHideFlags: 0
  m_CorrespondingSourceObject: {fileID: 0}
  m_PrefabInstance: {fileID: 0}
  m_PrefabAsset: {fileID: 0}
  m_GameObject: {fileID: 264894998722059312}
  m_LocalRotation: {x: -0, y: -0, z: -0, w: 1}
  m_LocalPosition: {x: 0, y: 0, z: 0}
  m_LocalScale: {x: 1, y: 1, z: 1}
  m_Children: []
  m_Father: {fileID: 729236209219353824}
  m_RootOrder: 0
  m_LocalEulerAnglesHint: {x: 0, y: 0, z: 0}
--- !u!1839735485 &2946981789946227682
Tilemap:
  m_ObjectHideFlags: 0
  m_CorrespondingSourceObject: {fileID: 0}
  m_PrefabInstance: {fileID: 0}
  m_PrefabAsset: {fileID: 0}
  m_GameObject: {fileID: 264894998722059312}
  m_Enabled: 1
  m_Tiles:
  - first: {x: -6, y: -14, z: 0}
    second:
      m_TileIndex: 14
      m_TileSpriteIndex: 14
      m_TileMatrixIndex: 0
      m_TileColorIndex: 0
      m_ObjectToInstantiate: {fileID: 0}
      m_TileFlags: 1
      m_ColliderType: 1
  - first: {x: -4, y: -9, z: 0}
    second:
      m_TileIndex: 12
      m_TileSpriteIndex: 12
      m_TileMatrixIndex: 0
      m_TileColorIndex: 0
      m_ObjectToInstantiate: {fileID: 0}
      m_TileFlags: 1
      m_ColliderType: 1
  - first: {x: -10, y: -8, z: 0}
    second:
      m_TileIndex: 17
      m_TileSpriteIndex: 17
      m_TileMatrixIndex: 0
      m_TileColorIndex: 0
      m_ObjectToInstantiate: {fileID: 0}
      m_TileFlags: 1
      m_ColliderType: 1
  - first: {x: 0, y: -8, z: 0}
    second:
      m_TileIndex: 13
      m_TileSpriteIndex: 13
      m_TileMatrixIndex: 0
      m_TileColorIndex: 0
      m_ObjectToInstantiate: {fileID: 0}
      m_TileFlags: 1
      m_ColliderType: 1
  - first: {x: 7, y: -8, z: 0}
    second:
      m_TileIndex: 29
      m_TileSpriteIndex: 29
      m_TileMatrixIndex: 0
      m_TileColorIndex: 0
      m_ObjectToInstantiate: {fileID: 0}
      m_TileFlags: 1
      m_ColliderType: 1
  - first: {x: -7, y: -7, z: 0}
    second:
      m_TileIndex: 11
      m_TileSpriteIndex: 11
      m_TileMatrixIndex: 0
      m_TileColorIndex: 0
      m_ObjectToInstantiate: {fileID: 0}
      m_TileFlags: 1
      m_ColliderType: 1
  - first: {x: -4, y: -7, z: 0}
    second:
      m_TileIndex: 19
      m_TileSpriteIndex: 19
      m_TileMatrixIndex: 0
      m_TileColorIndex: 0
      m_ObjectToInstantiate: {fileID: 0}
      m_TileFlags: 1
      m_ColliderType: 1
  - first: {x: 4, y: -7, z: 0}
    second:
      m_TileIndex: 25
      m_TileSpriteIndex: 25
      m_TileMatrixIndex: 0
      m_TileColorIndex: 0
      m_ObjectToInstantiate: {fileID: 0}
      m_TileFlags: 1
      m_ColliderType: 1
  - first: {x: 7, y: -7, z: 0}
    second:
      m_TileIndex: 27
      m_TileSpriteIndex: 27
      m_TileMatrixIndex: 0
      m_TileColorIndex: 0
      m_ObjectToInstantiate: {fileID: 0}
      m_TileFlags: 1
      m_ColliderType: 1
  - first: {x: -9, y: -6, z: 0}
    second:
      m_TileIndex: 16
      m_TileSpriteIndex: 16
      m_TileMatrixIndex: 0
      m_TileColorIndex: 0
      m_ObjectToInstantiate: {fileID: 0}
      m_TileFlags: 1
      m_ColliderType: 1
  - first: {x: -2, y: -6, z: 0}
    second:
      m_TileIndex: 9
      m_TileSpriteIndex: 9
      m_TileMatrixIndex: 0
      m_TileColorIndex: 0
      m_ObjectToInstantiate: {fileID: 0}
      m_TileFlags: 1
      m_ColliderType: 1
  - first: {x: -7, y: -5, z: 0}
    second:
      m_TileIndex: 21
      m_TileSpriteIndex: 21
      m_TileMatrixIndex: 0
      m_TileColorIndex: 0
      m_ObjectToInstantiate: {fileID: 0}
      m_TileFlags: 1
      m_ColliderType: 1
  - first: {x: 1, y: -5, z: 0}
    second:
      m_TileIndex: 20
      m_TileSpriteIndex: 20
      m_TileMatrixIndex: 0
      m_TileColorIndex: 0
      m_ObjectToInstantiate: {fileID: 0}
      m_TileFlags: 1
      m_ColliderType: 1
  - first: {x: 4, y: -5, z: 0}
    second:
      m_TileIndex: 28
      m_TileSpriteIndex: 28
      m_TileMatrixIndex: 0
      m_TileColorIndex: 0
      m_ObjectToInstantiate: {fileID: 0}
      m_TileFlags: 1
      m_ColliderType: 1
  - first: {x: 6, y: -5, z: 0}
    second:
      m_TileIndex: 24
      m_TileSpriteIndex: 24
      m_TileMatrixIndex: 0
      m_TileColorIndex: 0
      m_ObjectToInstantiate: {fileID: 0}
      m_TileFlags: 1
      m_ColliderType: 1
  - first: {x: -10, y: -4, z: 0}
    second:
      m_TileIndex: 18
      m_TileSpriteIndex: 18
      m_TileMatrixIndex: 0
      m_TileColorIndex: 0
      m_ObjectToInstantiate: {fileID: 0}
      m_TileFlags: 1
      m_ColliderType: 1
  - first: {x: -5, y: -4, z: 0}
    second:
      m_TileIndex: 8
      m_TileSpriteIndex: 8
      m_TileMatrixIndex: 0
      m_TileColorIndex: 0
      m_ObjectToInstantiate: {fileID: 0}
      m_TileFlags: 1
      m_ColliderType: 1
  - first: {x: -2, y: -4, z: 0}
    second:
      m_TileIndex: 10
      m_TileSpriteIndex: 10
      m_TileMatrixIndex: 0
      m_TileColorIndex: 0
      m_ObjectToInstantiate: {fileID: 0}
      m_TileFlags: 1
      m_ColliderType: 1
  - first: {x: 0, y: -3, z: 0}
    second:
      m_TileIndex: 6
      m_TileSpriteIndex: 6
      m_TileMatrixIndex: 0
      m_TileColorIndex: 0
      m_ObjectToInstantiate: {fileID: 0}
      m_TileFlags: 1
      m_ColliderType: 1
  - first: {x: 3, y: -3, z: 0}
    second:
      m_TileIndex: 26
      m_TileSpriteIndex: 26
      m_TileMatrixIndex: 0
      m_TileColorIndex: 0
      m_ObjectToInstantiate: {fileID: 0}
      m_TileFlags: 1
      m_ColliderType: 1
  - first: {x: 7, y: -3, z: 0}
    second:
      m_TileIndex: 23
      m_TileSpriteIndex: 23
      m_TileMatrixIndex: 0
      m_TileColorIndex: 0
      m_ObjectToInstantiate: {fileID: 0}
      m_TileFlags: 1
      m_ColliderType: 1
  - first: {x: -8, y: -2, z: 0}
    second:
      m_TileIndex: 7
      m_TileSpriteIndex: 7
      m_TileMatrixIndex: 0
      m_TileColorIndex: 0
      m_ObjectToInstantiate: {fileID: 0}
      m_TileFlags: 1
      m_ColliderType: 1
  - first: {x: -6, y: -2, z: 0}
    second:
      m_TileIndex: 15
      m_TileSpriteIndex: 15
      m_TileMatrixIndex: 0
      m_TileColorIndex: 0
      m_ObjectToInstantiate: {fileID: 0}
      m_TileFlags: 1
      m_ColliderType: 1
  - first: {x: -1, y: -2, z: 0}
    second:
      m_TileIndex: 5
      m_TileSpriteIndex: 5
      m_TileMatrixIndex: 0
      m_TileColorIndex: 0
      m_ObjectToInstantiate: {fileID: 0}
      m_TileFlags: 1
      m_ColliderType: 1
  - first: {x: -3, y: -1, z: 0}
    second:
      m_TileIndex: 4
      m_TileSpriteIndex: 4
      m_TileMatrixIndex: 0
      m_TileColorIndex: 0
      m_ObjectToInstantiate: {fileID: 0}
      m_TileFlags: 1
      m_ColliderType: 1
  - first: {x: -1, y: -1, z: 0}
    second:
      m_TileIndex: 2
      m_TileSpriteIndex: 4294967295
      m_TileMatrixIndex: 0
      m_TileColorIndex: 0
      m_ObjectToInstantiate: {fileID: 0}
      m_TileFlags: 1
      m_ColliderType: 1
  - first: {x: 0, y: -1, z: 0}
    second:
      m_TileIndex: 3
      m_TileSpriteIndex: 4294967295
      m_TileMatrixIndex: 0
      m_TileColorIndex: 0
      m_ObjectToInstantiate: {fileID: 0}
      m_TileFlags: 1
      m_ColliderType: 1
  - first: {x: 6, y: -1, z: 0}
    second:
      m_TileIndex: 33
      m_TileSpriteIndex: 33
      m_TileMatrixIndex: 0
      m_TileColorIndex: 0
      m_ObjectToInstantiate: {fileID: 0}
      m_TileFlags: 1
      m_ColliderType: 1
  - first: {x: -1, y: 0, z: 0}
    second:
      m_TileIndex: 0
      m_TileSpriteIndex: 3
      m_TileMatrixIndex: 0
      m_TileColorIndex: 0
      m_ObjectToInstantiate: {fileID: 0}
      m_TileFlags: 1
      m_ColliderType: 1
  - first: {x: 0, y: 0, z: 0}
    second:
      m_TileIndex: 1
      m_TileSpriteIndex: 2
      m_TileMatrixIndex: 0
      m_TileColorIndex: 0
      m_ObjectToInstantiate: {fileID: 0}
      m_TileFlags: 1
      m_ColliderType: 1
  - first: {x: 4, y: 0, z: 0}
    second:
      m_TileIndex: 22
      m_TileSpriteIndex: 22
      m_TileMatrixIndex: 0
      m_TileColorIndex: 0
      m_ObjectToInstantiate: {fileID: 0}
      m_TileFlags: 1
      m_ColliderType: 1
  - first: {x: 8, y: 0, z: 0}
    second:
      m_TileIndex: 32
      m_TileSpriteIndex: 32
      m_TileMatrixIndex: 0
      m_TileColorIndex: 0
      m_ObjectToInstantiate: {fileID: 0}
      m_TileFlags: 1
      m_ColliderType: 1
  - first: {x: -8, y: 1, z: 0}
    second:
      m_TileIndex: 30
      m_TileSpriteIndex: 30
      m_TileMatrixIndex: 0
      m_TileColorIndex: 0
      m_ObjectToInstantiate: {fileID: 0}
      m_TileFlags: 1
      m_ColliderType: 1
  - first: {x: -5, y: 1, z: 0}
    second:
      m_TileIndex: 31
      m_TileSpriteIndex: 31
      m_TileMatrixIndex: 0
      m_TileColorIndex: 0
      m_ObjectToInstantiate: {fileID: 0}
      m_TileFlags: 1
      m_ColliderType: 1
  - first: {x: 0, y: 4, z: 0}
    second:
      m_TileIndex: 42
      m_TileSpriteIndex: 1
      m_TileMatrixIndex: 0
      m_TileColorIndex: 0
      m_ObjectToInstantiate: {fileID: 0}
      m_TileFlags: 1
      m_ColliderType: 1
  - first: {x: -13, y: 8, z: 0}
    second:
      m_TileIndex: 34
      m_TileSpriteIndex: 34
      m_TileMatrixIndex: 0
      m_TileColorIndex: 0
      m_ObjectToInstantiate: {fileID: 0}
      m_TileFlags: 1
      m_ColliderType: 1
  - first: {x: -11, y: 8, z: 0}
    second:
      m_TileIndex: 35
      m_TileSpriteIndex: 35
      m_TileMatrixIndex: 0
      m_TileColorIndex: 0
      m_ObjectToInstantiate: {fileID: 0}
      m_TileFlags: 1
      m_ColliderType: 1
  - first: {x: -9, y: 8, z: 0}
    second:
      m_TileIndex: 36
      m_TileSpriteIndex: 36
      m_TileMatrixIndex: 0
      m_TileColorIndex: 0
      m_ObjectToInstantiate: {fileID: 0}
      m_TileFlags: 1
      m_ColliderType: 1
  - first: {x: -7, y: 8, z: 0}
    second:
      m_TileIndex: 37
      m_TileSpriteIndex: 37
      m_TileMatrixIndex: 0
      m_TileColorIndex: 0
      m_ObjectToInstantiate: {fileID: 0}
      m_TileFlags: 1
      m_ColliderType: 1
  - first: {x: -5, y: 8, z: 0}
    second:
      m_TileIndex: 38
      m_TileSpriteIndex: 38
      m_TileMatrixIndex: 0
      m_TileColorIndex: 0
      m_ObjectToInstantiate: {fileID: 0}
      m_TileFlags: 1
      m_ColliderType: 1
  - first: {x: -3, y: 8, z: 0}
    second:
      m_TileIndex: 39
      m_TileSpriteIndex: 39
      m_TileMatrixIndex: 0
      m_TileColorIndex: 0
      m_ObjectToInstantiate: {fileID: 0}
      m_TileFlags: 1
      m_ColliderType: 1
  - first: {x: -1, y: 8, z: 0}
    second:
      m_TileIndex: 40
      m_TileSpriteIndex: 40
      m_TileMatrixIndex: 0
      m_TileColorIndex: 0
      m_ObjectToInstantiate: {fileID: 0}
      m_TileFlags: 1
      m_ColliderType: 1
  - first: {x: 1, y: 8, z: 0}
    second:
      m_TileIndex: 41
      m_TileSpriteIndex: 41
      m_TileMatrixIndex: 0
      m_TileColorIndex: 0
      m_ObjectToInstantiate: {fileID: 0}
      m_TileFlags: 1
      m_ColliderType: 1
  m_AnimatedTiles: {}
  m_TileAssetArray:
  - m_RefCount: 1
    m_Data: {fileID: 11400000, guid: e6a983b7171e4a74491c6b69adab019d, type: 2}
  - m_RefCount: 1
    m_Data: {fileID: 11400000, guid: 85924e2125462104dba1dce97882faff, type: 2}
  - m_RefCount: 1
    m_Data: {fileID: 11400000, guid: d3941e47412619c4b85f88156dfca483, type: 2}
  - m_RefCount: 1
    m_Data: {fileID: 11400000, guid: 7bafbdf873268344db1ac0a05f8f43ee, type: 2}
  - m_RefCount: 1
    m_Data: {fileID: 11400000, guid: 17dfa3b6fc0575f4db392b481c3c7c6a, type: 2}
  - m_RefCount: 1
    m_Data: {fileID: 11400000, guid: b11c1b8dd8ad7c841a51c55641b76def, type: 2}
  - m_RefCount: 1
    m_Data: {fileID: 11400000, guid: be22d94903458dc43abca81bb42c27dd, type: 2}
  - m_RefCount: 1
    m_Data: {fileID: 11400000, guid: 86c8d5597a5ec18459c56fdf611c6d1a, type: 2}
  - m_RefCount: 1
    m_Data: {fileID: 11400000, guid: 6d76e56d0cbaa3e428f408853616aad0, type: 2}
  - m_RefCount: 1
    m_Data: {fileID: 11400000, guid: f71c937c021d5ba46b18371cc8cb2deb, type: 2}
  - m_RefCount: 1
    m_Data: {fileID: 11400000, guid: 06dcd59878f6d1c4f823ab68b035ef12, type: 2}
  - m_RefCount: 1
    m_Data: {fileID: 11400000, guid: ee0f00c22d934da409cd15f173ff3157, type: 2}
  - m_RefCount: 1
    m_Data: {fileID: 11400000, guid: 54440cc6cfa6888499e3da228bbcc66d, type: 2}
  - m_RefCount: 1
    m_Data: {fileID: 11400000, guid: e9bbc9d3088c5b549b3148e6fada4579, type: 2}
  - m_RefCount: 1
    m_Data: {fileID: 11400000, guid: f179cdccc33c4d041bbd649822900661, type: 2}
  - m_RefCount: 1
    m_Data: {fileID: 11400000, guid: 44e2ddd752eeb3d418960bbc21783faa, type: 2}
  - m_RefCount: 1
    m_Data: {fileID: 11400000, guid: 87ee23497cc41b149be0bf38744a953c, type: 2}
  - m_RefCount: 1
    m_Data: {fileID: 11400000, guid: 7a5bc92c556e0464ab863f49ccb3997b, type: 2}
  - m_RefCount: 1
    m_Data: {fileID: 11400000, guid: 8ae240313ad26f843b7882745eb3cdf9, type: 2}
  - m_RefCount: 1
    m_Data: {fileID: 11400000, guid: 4e0bf90169193ee458af54c023108516, type: 2}
  - m_RefCount: 1
    m_Data: {fileID: 11400000, guid: b2a9305ac77e62342881f03d316d2414, type: 2}
  - m_RefCount: 1
    m_Data: {fileID: 11400000, guid: cc8c8bb1e753c0143ac4e26d79f1fa40, type: 2}
  - m_RefCount: 1
    m_Data: {fileID: 11400000, guid: 3bd924f8d447c2e4baedb4730ef81ea4, type: 2}
  - m_RefCount: 1
    m_Data: {fileID: 11400000, guid: bec792147097cb64b99dd8f6e9dd325c, type: 2}
  - m_RefCount: 1
    m_Data: {fileID: 11400000, guid: 62cd2de49cd1cdb4999d553a2be02fed, type: 2}
  - m_RefCount: 1
    m_Data: {fileID: 11400000, guid: 6e30cd0b8bfe86346b7aa2701af95b70, type: 2}
  - m_RefCount: 1
    m_Data: {fileID: 11400000, guid: 3b3afd5436ee876488c4160f634e4bdc, type: 2}
  - m_RefCount: 1
    m_Data: {fileID: 11400000, guid: afb1742824cb0ca4897024e35c8f682e, type: 2}
  - m_RefCount: 1
    m_Data: {fileID: 11400000, guid: c77f6439039f4f147a5b89b7715b5648, type: 2}
  - m_RefCount: 1
    m_Data: {fileID: 11400000, guid: 95ccff0649ce50344b59e915b9bb9daf, type: 2}
  - m_RefCount: 1
    m_Data: {fileID: 11400000, guid: b03871eee0080cb49b9a5bfd30e84842, type: 2}
  - m_RefCount: 1
    m_Data: {fileID: 11400000, guid: 5bc02c2d71b636545bf2a3fb90ef1528, type: 2}
  - m_RefCount: 1
    m_Data: {fileID: 11400000, guid: 31382957ddb0e2b428ee377348501472, type: 2}
  - m_RefCount: 1
    m_Data: {fileID: 11400000, guid: 1f4fae4e38ea8634e9d4313835cbdca8, type: 2}
  - m_RefCount: 1
    m_Data: {fileID: 11400000, guid: c2317fcad10f8524486e5e9e89dfd6ef, type: 2}
  - m_RefCount: 1
    m_Data: {fileID: 11400000, guid: b7ff95848cb8bae44ac739dd0171e196, type: 2}
  - m_RefCount: 1
    m_Data: {fileID: 11400000, guid: d71033e31ad84a04a9d5f92b53545378, type: 2}
  - m_RefCount: 1
    m_Data: {fileID: 11400000, guid: e38974dec35c5b44692db416ec5d62fd, type: 2}
  - m_RefCount: 1
    m_Data: {fileID: 11400000, guid: 190db7e22b91fc34b8e5a0550551e9a4, type: 2}
  - m_RefCount: 1
    m_Data: {fileID: 11400000, guid: 726d3102b3762af45beed437bc78b6d1, type: 2}
  - m_RefCount: 1
    m_Data: {fileID: 11400000, guid: 39593ea4c4732cc42b5f51e569e42e23, type: 2}
  - m_RefCount: 1
    m_Data: {fileID: 11400000, guid: d6a1c5b05cd076c4da5e99032e72f8c2, type: 2}
  - m_RefCount: 1
    m_Data: {fileID: 11400000, guid: 0f17cf32b48bc4c4d84301402b6589e8, type: 2}
  m_TileSpriteArray:
  - m_RefCount: 0
    m_Data: {fileID: 0}
  - m_RefCount: 1
    m_Data: {fileID: 3851852256044983542, guid: 5e5664991919d0348817d35aa955191e,
      type: 3}
  - m_RefCount: 1
    m_Data: {fileID: 787484624349366258, guid: 843392e3da34689479d74731a3c6d57c, type: 3}
  - m_RefCount: 1
    m_Data: {fileID: 1922234848089956747, guid: 18fcea76eb0c2834aa2871b067d8bfec,
      type: 3}
  - m_RefCount: 1
    m_Data: {fileID: -7950082369871301689, guid: 4ad3dbc1b2327d442badb68144db31fd,
      type: 3}
  - m_RefCount: 1
    m_Data: {fileID: -3004054927286163546, guid: 1681b82c6a1d86247b049994e00dbfcd,
      type: 3}
  - m_RefCount: 1
    m_Data: {fileID: -3482701875994086550, guid: 86ba931ed1ce66443b21f7aa7c81b412,
      type: 3}
  - m_RefCount: 1
    m_Data: {fileID: -2754688175499355523, guid: 38579e3ecf92a8240ad45b7c35412484,
      type: 3}
  - m_RefCount: 1
    m_Data: {fileID: 7575235932182456035, guid: 2a10da87ff5a2984e853704eceb48690,
      type: 3}
  - m_RefCount: 1
    m_Data: {fileID: 8809759055264613502, guid: 8c04f39de822a0f4ea7d5e05fa6cebb6,
      type: 3}
  - m_RefCount: 1
    m_Data: {fileID: 1225288683681708120, guid: 46eac046e8603bc4391d72b4765d8461,
      type: 3}
  - m_RefCount: 1
    m_Data: {fileID: -565347384133671522, guid: 9b471e88d3831cd40a26e2c832ce107b,
      type: 3}
  - m_RefCount: 1
    m_Data: {fileID: -1526097901939069628, guid: b2d92b1606e730f4f99b22f7e78b7d31,
      type: 3}
  - m_RefCount: 1
    m_Data: {fileID: -5509753353421974763, guid: 528a156732be5034caa147db8809c810,
      type: 3}
  - m_RefCount: 1
    m_Data: {fileID: -6320875967383708603, guid: ca57394a131154645ba6c723a56ba5ed,
      type: 3}
  - m_RefCount: 1
    m_Data: {fileID: 934638775964283953, guid: 3c608c3777961d849854d33bbb2cd4b3, type: 3}
  - m_RefCount: 1
    m_Data: {fileID: -7432412826210258936, guid: 7e6564c19f810b149bebcc707907c9a1,
      type: 3}
  - m_RefCount: 1
    m_Data: {fileID: -7305501478545132475, guid: 5ee230b78d2b4f44dbf71bfb418abd96,
      type: 3}
  - m_RefCount: 1
    m_Data: {fileID: 2516700571916901712, guid: ddb13cf1ec028744fa7a479449bb5b90,
      type: 3}
  - m_RefCount: 1
    m_Data: {fileID: 8999803332565486774, guid: b936dfc4815dc104c96157c0e6bbe9e8,
      type: 3}
  - m_RefCount: 1
    m_Data: {fileID: -5936748718688286026, guid: 982f755869cb8e14a9725d6c9eae41a2,
      type: 3}
  - m_RefCount: 1
    m_Data: {fileID: -8356881508975672255, guid: 891d3f9b056f58b4ab017fd3ef3f3095,
      type: 3}
  - m_RefCount: 1
    m_Data: {fileID: 874827082702333077, guid: 444fe210f5e7e40438f911e85c644062, type: 3}
  - m_RefCount: 1
    m_Data: {fileID: -2901701103672578145, guid: f72dc21eed0d98344baa32056ca6b2b2,
      type: 3}
  - m_RefCount: 1
    m_Data: {fileID: -5759891587060671639, guid: cca1bfd687d444242a7631a5a033f498,
      type: 3}
  - m_RefCount: 1
    m_Data: {fileID: -7584174701797487750, guid: 3d321c130bcc8b740ba26fb566139189,
      type: 3}
  - m_RefCount: 1
    m_Data: {fileID: -2213606668912200157, guid: 37c73cf4e6957ae49a9e487b9ec7a1ba,
      type: 3}
  - m_RefCount: 1
    m_Data: {fileID: -2718189660088181846, guid: 7ede2e5c4e7be8a469ce13199f8ca2fb,
      type: 3}
  - m_RefCount: 1
    m_Data: {fileID: -507171402392361189, guid: ec1aa34483b116644b41a2b62dc8c64b,
      type: 3}
  - m_RefCount: 1
    m_Data: {fileID: 7645105269677939198, guid: 1b720db98ae130b4a91761e30e91585b,
      type: 3}
  - m_RefCount: 1
    m_Data: {fileID: -9116402489067834861, guid: 4144ecf3529a4b54a8ec9116539da2e0,
      type: 3}
  - m_RefCount: 1
    m_Data: {fileID: -2372651041909319453, guid: 11752ca3f60a3e84389a0c88eb9b2f79,
      type: 3}
  - m_RefCount: 1
    m_Data: {fileID: -5637638114209507038, guid: eaa8ca14c00615c4c8a993dd82464632,
      type: 3}
  - m_RefCount: 1
    m_Data: {fileID: 8433350453215818003, guid: 62b2311033effb644bf467992142e23a,
      type: 3}
  - m_RefCount: 1
    m_Data: {fileID: 4967757045463728992, guid: fa66d8c5e8eaedd4b9a59754c2720803,
      type: 3}
  - m_RefCount: 1
    m_Data: {fileID: 6950169120149815342, guid: d7655637d84fe99458b55c36395bf59a,
      type: 3}
  - m_RefCount: 1
    m_Data: {fileID: -8214333477807717858, guid: 7608b865613f2754292e377c32b5ce61,
      type: 3}
  - m_RefCount: 1
    m_Data: {fileID: 8882982800980956228, guid: 2825af71a8ac4ef4b888a4a077990250,
      type: 3}
  - m_RefCount: 1
    m_Data: {fileID: -4894346642635099930, guid: 7741e18c0bff7a6499d3034741b684a2,
      type: 3}
  - m_RefCount: 1
    m_Data: {fileID: 4988704199052225827, guid: a5fb93fd8bfde764aafca46f269823a0,
      type: 3}
  - m_RefCount: 1
    m_Data: {fileID: -8822362396292307120, guid: 7501bc55ee0837d4b8d8e80f63dc420a,
      type: 3}
  - m_RefCount: 1
    m_Data: {fileID: -4853770584572790085, guid: a096e2da3b433cc47929a5cdcaa9ee87,
      type: 3}
  m_TileMatrixArray:
  - m_RefCount: 43
    m_Data:
      e00: 1
      e01: 0
      e02: 0
      e03: 0
      e10: 0
      e11: 1
      e12: 0
      e13: 0
      e20: 0
      e21: 0
      e22: 1
      e23: 0
      e30: 0
      e31: 0
      e32: 0
      e33: 1
  m_TileColorArray:
  - m_RefCount: 43
    m_Data: {r: 1, g: 1, b: 1, a: 1}
  m_AnimationFrameRate: 1
  m_Color: {r: 1, g: 1, b: 1, a: 1}
  m_Origin: {x: -13, y: -14, z: 0}
  m_Size: {x: 22, y: 23, z: 1}
  m_TileAnchor: {x: 0.5, y: 0.5, z: 0}
  m_TileOrientation: 0
  m_TileOrientationMatrix:
    e00: 1
    e01: 0
    e02: 0
    e03: 0
    e10: 0
    e11: 1
    e12: 0
    e13: 0
    e20: 0
    e21: 0
    e22: 1
    e23: 0
    e30: 0
    e31: 0
    e32: 0
    e33: 1
--- !u!483693784 &830383251612918140
TilemapRenderer:
  m_ObjectHideFlags: 0
  m_CorrespondingSourceObject: {fileID: 0}
  m_PrefabInstance: {fileID: 0}
  m_PrefabAsset: {fileID: 0}
  m_GameObject: {fileID: 264894998722059312}
  m_Enabled: 0
  m_CastShadows: 0
  m_ReceiveShadows: 0
  m_DynamicOccludee: 0
  m_MotionVectors: 1
  m_LightProbeUsage: 0
  m_ReflectionProbeUsage: 0
  m_RenderingLayerMask: 1
  m_RendererPriority: 0
  m_Materials:
  - {fileID: 10754, guid: 0000000000000000f000000000000000, type: 0}
  m_StaticBatchInfo:
    firstSubMesh: 0
    subMeshCount: 0
  m_StaticBatchRoot: {fileID: 0}
  m_ProbeAnchor: {fileID: 0}
  m_LightProbeVolumeOverride: {fileID: 0}
  m_ScaleInLightmap: 1
  m_ReceiveGI: 1
  m_PreserveUVs: 0
  m_IgnoreNormalsForChartDetection: 0
  m_ImportantGI: 0
  m_StitchLightmapSeams: 1
  m_SelectedEditorRenderState: 0
  m_MinimumChartSize: 4
  m_AutoUVMaxDistance: 0.5
  m_AutoUVMaxAngle: 89
  m_LightmapParameters: {fileID: 0}
  m_SortingLayerID: 0
  m_SortingLayer: 0
  m_SortingOrder: 0
  m_ChunkSize: {x: 32, y: 32, z: 32}
  m_ChunkCullingBounds: {x: 1.140625, y: 0.796875, z: 0}
  m_MaxChunkCount: 16
  m_MaxFrameAge: 16
  m_SortOrder: 0
  m_Mode: 0
  m_DetectChunkCullingBounds: 0
  m_MaskInteraction: 0
--- !u!1 &2288405843092999255
GameObject:
  m_ObjectHideFlags: 0
  m_CorrespondingSourceObject: {fileID: 0}
  m_PrefabInstance: {fileID: 0}
  m_PrefabAsset: {fileID: 0}
  serializedVersion: 6
  m_Component:
  - component: {fileID: 729236209219353824}
  - component: {fileID: 8679952719213778543}
  m_Layer: 31
  m_Name: Forniture
  m_TagString: Untagged
  m_Icon: {fileID: 0}
  m_NavMeshLayer: 0
  m_StaticEditorFlags: 0
  m_IsActive: 1
--- !u!4 &729236209219353824
Transform:
  m_ObjectHideFlags: 0
  m_CorrespondingSourceObject: {fileID: 0}
  m_PrefabInstance: {fileID: 0}
  m_PrefabAsset: {fileID: 0}
  m_GameObject: {fileID: 2288405843092999255}
  m_LocalRotation: {x: 0, y: 0, z: 0, w: 1}
  m_LocalPosition: {x: 0, y: 0, z: 0}
  m_LocalScale: {x: 1, y: 1, z: 1}
  m_Children:
  - {fileID: 6819861549778696551}
  m_Father: {fileID: 0}
  m_RootOrder: 0
  m_LocalEulerAnglesHint: {x: 0, y: 0, z: 0}
--- !u!156049354 &8679952719213778543
Grid:
  m_ObjectHideFlags: 0
  m_CorrespondingSourceObject: {fileID: 0}
  m_PrefabInstance: {fileID: 0}
  m_PrefabAsset: {fileID: 0}
  m_GameObject: {fileID: 2288405843092999255}
  m_Enabled: 1
  m_CellSize: {x: 1.15625, y: 2, z: 0}
  m_CellGap: {x: 0, y: 0, z: 0}
  m_CellLayout: 0
  m_CellSwizzle: 0
--- !u!114 &-3028160331893441220
MonoBehaviour:
  m_ObjectHideFlags: 0
  m_CorrespondingSourceObject: {fileID: 0}
  m_PrefabInstance: {fileID: 0}
  m_PrefabAsset: {fileID: 0}
  m_GameObject: {fileID: 0}
  m_Enabled: 1
  m_EditorHideFlags: 0
  m_Script: {fileID: 12395, guid: 0000000000000000e000000000000000, type: 0}
  m_Name: Palette Settings
  m_EditorClassIdentifier: 
  cellSizing: 0
