%YAML 1.1
%TAG !u! tag:unity3d.com,2011:
--- !u!1 &2390706442660403339
GameObject:
  m_ObjectHideFlags: 0
  m_CorrespondingSourceObject: {fileID: 0}
  m_PrefabInstance: {fileID: 0}
  m_PrefabAsset: {fileID: 0}
  serializedVersion: 6
  m_Component:
  - component: {fileID: 6813378647354124868}
  - component: {fileID: 2438464099811747868}
  m_Layer: 31
  m_Name: 0_House_NEWObjects
  m_TagString: Untagged
  m_Icon: {fileID: 0}
  m_NavMeshLayer: 0
  m_StaticEditorFlags: 0
  m_IsActive: 1
--- !u!4 &6813378647354124868
Transform:
  m_ObjectHideFlags: 0
  m_CorrespondingSourceObject: {fileID: 0}
  m_PrefabInstance: {fileID: 0}
  m_PrefabAsset: {fileID: 0}
  m_GameObject: {fileID: 2390706442660403339}
  m_LocalRotation: {x: 0, y: 0, z: 0, w: 1}
  m_LocalPosition: {x: 0, y: 0, z: 0}
  m_LocalScale: {x: 1, y: 1, z: 1}
  m_Children:
  - {fileID: 1288211096993508738}
  m_Father: {fileID: 0}
  m_RootOrder: 0
  m_LocalEulerAnglesHint: {x: 0, y: 0, z: 0}
--- !u!156049354 &2438464099811747868
Grid:
  m_ObjectHideFlags: 0
  m_CorrespondingSourceObject: {fileID: 0}
  m_PrefabInstance: {fileID: 0}
  m_PrefabAsset: {fileID: 0}
  m_GameObject: {fileID: 2390706442660403339}
  m_Enabled: 1
  m_CellSize: {x: 0.625, y: 2, z: 0}
  m_CellGap: {x: 0, y: 0, z: 0}
  m_CellLayout: 0
  m_CellSwizzle: 0
--- !u!1 &6030570873335734394
GameObject:
  m_ObjectHideFlags: 0
  m_CorrespondingSourceObject: {fileID: 0}
  m_PrefabInstance: {fileID: 0}
  m_PrefabAsset: {fileID: 0}
  serializedVersion: 6
  m_Component:
  - component: {fileID: 1288211096993508738}
  - component: {fileID: 3802682080043895910}
  - component: {fileID: 6530141811628666893}
  m_Layer: 31
  m_Name: Layer1
  m_TagString: Untagged
  m_Icon: {fileID: 0}
  m_NavMeshLayer: 0
  m_StaticEditorFlags: 0
  m_IsActive: 1
--- !u!4 &1288211096993508738
Transform:
  m_ObjectHideFlags: 0
  m_CorrespondingSourceObject: {fileID: 0}
  m_PrefabInstance: {fileID: 0}
  m_PrefabAsset: {fileID: 0}
  m_GameObject: {fileID: 6030570873335734394}
  m_LocalRotation: {x: -0, y: -0, z: -0, w: 1}
  m_LocalPosition: {x: 0, y: 0, z: 0}
  m_LocalScale: {x: 1, y: 1, z: 1}
  m_Children: []
  m_Father: {fileID: 6813378647354124868}
  m_RootOrder: 0
  m_LocalEulerAnglesHint: {x: 0, y: 0, z: 0}
--- !u!1839735485 &3802682080043895910
Tilemap:
  m_ObjectHideFlags: 0
  m_CorrespondingSourceObject: {fileID: 0}
  m_PrefabInstance: {fileID: 0}
  m_PrefabAsset: {fileID: 0}
  m_GameObject: {fileID: 6030570873335734394}
  m_Enabled: 1
  m_Tiles:
  - first: {x: -11, y: -12, z: 0}
    second:
      m_TileIndex: 15
      m_TileSpriteIndex: 15
      m_TileMatrixIndex: 0
      m_TileColorIndex: 0
      m_ObjectToInstantiate: {fileID: 0}
      m_TileFlags: 1
      m_ColliderType: 1
  - first: {x: -14, y: -10, z: 0}
    second:
      m_TileIndex: 14
      m_TileSpriteIndex: 14
      m_TileMatrixIndex: 0
      m_TileColorIndex: 0
      m_ObjectToInstantiate: {fileID: 0}
      m_TileFlags: 1
      m_ColliderType: 1
  - first: {x: -2, y: -10, z: 0}
    second:
      m_TileIndex: 11
      m_TileSpriteIndex: 11
      m_TileMatrixIndex: 0
      m_TileColorIndex: 0
      m_ObjectToInstantiate: {fileID: 0}
      m_TileFlags: 1
      m_ColliderType: 1
  - first: {x: -21, y: -9, z: 0}
    second:
      m_TileIndex: 34
      m_TileSpriteIndex: 14
      m_TileMatrixIndex: 0
      m_TileColorIndex: 0
      m_ObjectToInstantiate: {fileID: 0}
      m_TileFlags: 1
      m_ColliderType: 1
  - first: {x: -2, y: -9, z: 0}
    second:
      m_TileIndex: 9
      m_TileSpriteIndex: 9
      m_TileMatrixIndex: 0
      m_TileColorIndex: 0
      m_ObjectToInstantiate: {fileID: 0}
      m_TileFlags: 1
      m_ColliderType: 1
  - first: {x: -1, y: -9, z: 0}
    second:
      m_TileIndex: 8
      m_TileSpriteIndex: 8
      m_TileMatrixIndex: 0
      m_TileColorIndex: 0
      m_ObjectToInstantiate: {fileID: 0}
      m_TileFlags: 1
      m_ColliderType: 1
  - first: {x: 12, y: -9, z: 0}
    second:
      m_TileIndex: 12
      m_TileSpriteIndex: 12
      m_TileMatrixIndex: 0
      m_TileColorIndex: 0
      m_ObjectToInstantiate: {fileID: 0}
      m_TileFlags: 1
      m_ColliderType: 1
  - first: {x: 18, y: -9, z: 0}
    second:
      m_TileIndex: 13
      m_TileSpriteIndex: 13
      m_TileMatrixIndex: 0
      m_TileColorIndex: 0
      m_ObjectToInstantiate: {fileID: 0}
      m_TileFlags: 1
      m_ColliderType: 1
  - first: {x: 6, y: -6, z: 0}
    second:
      m_TileIndex: 48
      m_TileSpriteIndex: 38
      m_TileMatrixIndex: 0
      m_TileColorIndex: 0
      m_ObjectToInstantiate: {fileID: 0}
      m_TileFlags: 1
      m_ColliderType: 1
  - first: {x: 9, y: -6, z: 0}
    second:
      m_TileIndex: 49
      m_TileSpriteIndex: 39
      m_TileMatrixIndex: 0
      m_TileColorIndex: 0
      m_ObjectToInstantiate: {fileID: 0}
      m_TileFlags: 1
      m_ColliderType: 1
  - first: {x: -14, y: -5, z: 0}
    second:
      m_TileIndex: 41
      m_TileSpriteIndex: 31
      m_TileMatrixIndex: 0
      m_TileColorIndex: 0
      m_ObjectToInstantiate: {fileID: 0}
      m_TileFlags: 1
      m_ColliderType: 1
  - first: {x: -2, y: -5, z: 0}
    second:
      m_TileIndex: 10
      m_TileSpriteIndex: 10
      m_TileMatrixIndex: 0
      m_TileColorIndex: 0
      m_ObjectToInstantiate: {fileID: 0}
      m_TileFlags: 1
      m_ColliderType: 1
  - first: {x: 11, y: -5, z: 0}
    second:
      m_TileIndex: 47
      m_TileSpriteIndex: 37
      m_TileMatrixIndex: 0
      m_TileColorIndex: 0
      m_ObjectToInstantiate: {fileID: 0}
      m_TileFlags: 1
      m_ColliderType: 1
  - first: {x: 14, y: -5, z: 0}
    second:
      m_TileIndex: 42
      m_TileSpriteIndex: 32
      m_TileMatrixIndex: 0
      m_TileColorIndex: 0
      m_ObjectToInstantiate: {fileID: 0}
      m_TileFlags: 1
      m_ColliderType: 1
  - first: {x: 16, y: -5, z: 0}
    second:
      m_TileIndex: 43
      m_TileSpriteIndex: 33
      m_TileMatrixIndex: 0
      m_TileColorIndex: 0
      m_ObjectToInstantiate: {fileID: 0}
      m_TileFlags: 1
      m_ColliderType: 1
  - first: {x: 28, y: -5, z: 0}
    second:
      m_TileIndex: 46
      m_TileSpriteIndex: 36
      m_TileMatrixIndex: 0
      m_TileColorIndex: 0
      m_ObjectToInstantiate: {fileID: 0}
      m_TileFlags: 1
      m_ColliderType: 1
  - first: {x: 0, y: -4, z: 0}
    second:
      m_TileIndex: 4
      m_TileSpriteIndex: 4
      m_TileMatrixIndex: 0
      m_TileColorIndex: 0
      m_ObjectToInstantiate: {fileID: 0}
      m_TileFlags: 1
      m_ColliderType: 1
  - first: {x: 3, y: -4, z: 0}
    second:
      m_TileIndex: 5
      m_TileSpriteIndex: 5
      m_TileMatrixIndex: 0
      m_TileColorIndex: 0
      m_ObjectToInstantiate: {fileID: 0}
      m_TileFlags: 1
      m_ColliderType: 1
  - first: {x: 5, y: -4, z: 0}
    second:
      m_TileIndex: 6
      m_TileSpriteIndex: 6
      m_TileMatrixIndex: 0
      m_TileColorIndex: 0
      m_ObjectToInstantiate: {fileID: 0}
      m_TileFlags: 1
      m_ColliderType: 1
  - first: {x: 7, y: -4, z: 0}
    second:
      m_TileIndex: 7
      m_TileSpriteIndex: 7
      m_TileMatrixIndex: 0
      m_TileColorIndex: 0
      m_ObjectToInstantiate: {fileID: 0}
      m_TileFlags: 1
      m_ColliderType: 1
  - first: {x: 21, y: -4, z: 0}
    second:
      m_TileIndex: 44
      m_TileSpriteIndex: 34
      m_TileMatrixIndex: 0
      m_TileColorIndex: 0
      m_ObjectToInstantiate: {fileID: 0}
      m_TileFlags: 1
      m_ColliderType: 1
  - first: {x: 25, y: -4, z: 0}
    second:
      m_TileIndex: 45
      m_TileSpriteIndex: 35
      m_TileMatrixIndex: 0
      m_TileColorIndex: 0
      m_ObjectToInstantiate: {fileID: 0}
      m_TileFlags: 1
      m_ColliderType: 1
  - first: {x: 41, y: -4, z: 0}
    second:
      m_TileIndex: 24
      m_TileSpriteIndex: 24
      m_TileMatrixIndex: 0
      m_TileColorIndex: 0
      m_ObjectToInstantiate: {fileID: 0}
      m_TileFlags: 1
      m_ColliderType: 1
  - first: {x: 55, y: -4, z: 0}
    second:
      m_TileIndex: 25
      m_TileSpriteIndex: 25
      m_TileMatrixIndex: 0
      m_TileColorIndex: 0
      m_ObjectToInstantiate: {fileID: 0}
      m_TileFlags: 1
      m_ColliderType: 1
  - first: {x: 71, y: -4, z: 0}
    second:
      m_TileIndex: 31
      m_TileSpriteIndex: 19
      m_TileMatrixIndex: 0
      m_TileColorIndex: 0
      m_ObjectToInstantiate: {fileID: 0}
      m_TileFlags: 1
      m_ColliderType: 1
  - first: {x: 78, y: -4, z: 0}
    second:
      m_TileIndex: 28
      m_TileSpriteIndex: 22
      m_TileMatrixIndex: 0
      m_TileColorIndex: 0
      m_ObjectToInstantiate: {fileID: 0}
      m_TileFlags: 1
      m_ColliderType: 1
  - first: {x: 87, y: -4, z: 0}
    second:
      m_TileIndex: 29
      m_TileSpriteIndex: 16
      m_TileMatrixIndex: 0
      m_TileColorIndex: 0
      m_ObjectToInstantiate: {fileID: 0}
      m_TileFlags: 1
      m_ColliderType: 1
  - first: {x: -14, y: -3, z: 0}
    second:
      m_TileIndex: 40
      m_TileSpriteIndex: 30
      m_TileMatrixIndex: 0
      m_TileColorIndex: 0
      m_ObjectToInstantiate: {fileID: 0}
      m_TileFlags: 1
      m_ColliderType: 1
  - first: {x: -8, y: -3, z: 0}
    second:
      m_TileIndex: 35
      m_TileSpriteIndex: 15
      m_TileMatrixIndex: 0
      m_TileColorIndex: 0
      m_ObjectToInstantiate: {fileID: 0}
      m_TileFlags: 1
      m_ColliderType: 1
  - first: {x: -1, y: -2, z: 0}
    second:
      m_TileIndex: 2
      m_TileSpriteIndex: 2
      m_TileMatrixIndex: 0
      m_TileColorIndex: 0
      m_ObjectToInstantiate: {fileID: 0}
      m_TileFlags: 1
      m_ColliderType: 1
  - first: {x: 1, y: -2, z: 0}
    second:
      m_TileIndex: 3
      m_TileSpriteIndex: 3
      m_TileMatrixIndex: 0
      m_TileColorIndex: 0
      m_ObjectToInstantiate: {fileID: 0}
      m_TileFlags: 1
      m_ColliderType: 1
  - first: {x: 11, y: -2, z: 0}
    second:
      m_TileIndex: 37
      m_TileSpriteIndex: 27
      m_TileMatrixIndex: 0
      m_TileColorIndex: 0
      m_ObjectToInstantiate: {fileID: 0}
      m_TileFlags: 1
      m_ColliderType: 1
  - first: {x: 15, y: -2, z: 0}
    second:
      m_TileIndex: 38
      m_TileSpriteIndex: 28
      m_TileMatrixIndex: 0
      m_TileColorIndex: 0
      m_ObjectToInstantiate: {fileID: 0}
      m_TileFlags: 1
      m_ColliderType: 1
  - first: {x: 17, y: -2, z: 0}
    second:
      m_TileIndex: 39
      m_TileSpriteIndex: 29
      m_TileMatrixIndex: 0
      m_TileColorIndex: 0
      m_ObjectToInstantiate: {fileID: 0}
      m_TileFlags: 1
      m_ColliderType: 1
  - first: {x: 32, y: -2, z: 0}
    second:
      m_TileIndex: 50
      m_TileSpriteIndex: 24
      m_TileMatrixIndex: 0
      m_TileColorIndex: 0
      m_ObjectToInstantiate: {fileID: 0}
      m_TileFlags: 1
      m_ColliderType: 1
  - first: {x: 71, y: -2, z: 0}
    second:
      m_TileIndex: 30
      m_TileSpriteIndex: 17
      m_TileMatrixIndex: 0
      m_TileColorIndex: 0
      m_ObjectToInstantiate: {fileID: 0}
      m_TileFlags: 1
      m_ColliderType: 1
  - first: {x: 83, y: -2, z: 0}
    second:
      m_TileIndex: 32
      m_TileSpriteIndex: 23
      m_TileMatrixIndex: 0
      m_TileColorIndex: 0
      m_ObjectToInstantiate: {fileID: 0}
      m_TileFlags: 1
      m_ColliderType: 1
  - first: {x: -11, y: -1, z: 0}
    second:
      m_TileIndex: 36
      m_TileSpriteIndex: 26
      m_TileMatrixIndex: 0
      m_TileColorIndex: 0
      m_ObjectToInstantiate: {fileID: 0}
      m_TileFlags: 1
      m_ColliderType: 1
  - first: {x: 58, y: -1, z: 0}
    second:
      m_TileIndex: 22
      m_TileSpriteIndex: 22
      m_TileMatrixIndex: 0
      m_TileColorIndex: 0
      m_ObjectToInstantiate: {fileID: 0}
      m_TileFlags: 1
      m_ColliderType: 1
  - first: {x: 59, y: -1, z: 0}
    second:
      m_TileIndex: 23
      m_TileSpriteIndex: 23
      m_TileMatrixIndex: 0
      m_TileColorIndex: 0
      m_ObjectToInstantiate: {fileID: 0}
      m_TileFlags: 1
      m_ColliderType: 1
  - first: {x: 78, y: -1, z: 0}
    second:
      m_TileIndex: 27
      m_TileSpriteIndex: 20
      m_TileMatrixIndex: 0
      m_TileColorIndex: 0
      m_ObjectToInstantiate: {fileID: 0}
      m_TileFlags: 1
      m_ColliderType: 1
  - first: {x: 89, y: -1, z: 0}
    second:
      m_TileIndex: 33
      m_TileSpriteIndex: 18
      m_TileMatrixIndex: 0
      m_TileColorIndex: 0
      m_ObjectToInstantiate: {fileID: 0}
      m_TileFlags: 1
      m_ColliderType: 1
  - first: {x: -1, y: 0, z: 0}
    second:
      m_TileIndex: 0
      m_TileSpriteIndex: 0
      m_TileMatrixIndex: 0
      m_TileColorIndex: 0
      m_ObjectToInstantiate: {fileID: 0}
      m_TileFlags: 1
      m_ColliderType: 1
  - first: {x: 1, y: 0, z: 0}
    second:
      m_TileIndex: 1
      m_TileSpriteIndex: 1
      m_TileMatrixIndex: 0
      m_TileColorIndex: 0
      m_ObjectToInstantiate: {fileID: 0}
      m_TileFlags: 1
      m_ColliderType: 1
  - first: {x: 58, y: 0, z: 0}
    second:
      m_TileIndex: 19
      m_TileSpriteIndex: 19
      m_TileMatrixIndex: 0
      m_TileColorIndex: 0
      m_ObjectToInstantiate: {fileID: 0}
      m_TileFlags: 1
      m_ColliderType: 1
  - first: {x: 59, y: 0, z: 0}
    second:
      m_TileIndex: 20
      m_TileSpriteIndex: 20
      m_TileMatrixIndex: 0
      m_TileColorIndex: 0
      m_ObjectToInstantiate: {fileID: 0}
      m_TileFlags: 1
      m_ColliderType: 1
  - first: {x: 60, y: 0, z: 0}
    second:
      m_TileIndex: 21
      m_TileSpriteIndex: 21
      m_TileMatrixIndex: 0
      m_TileColorIndex: 0
      m_ObjectToInstantiate: {fileID: 0}
      m_TileFlags: 1
      m_ColliderType: 1
  - first: {x: 58, y: 1, z: 0}
    second:
      m_TileIndex: 16
      m_TileSpriteIndex: 16
      m_TileMatrixIndex: 0
      m_TileColorIndex: 0
      m_ObjectToInstantiate: {fileID: 0}
      m_TileFlags: 1
      m_ColliderType: 1
  - first: {x: 59, y: 1, z: 0}
    second:
      m_TileIndex: 17
      m_TileSpriteIndex: 17
      m_TileMatrixIndex: 0
      m_TileColorIndex: 0
      m_ObjectToInstantiate: {fileID: 0}
      m_TileFlags: 1
      m_ColliderType: 1
  - first: {x: 60, y: 1, z: 0}
    second:
      m_TileIndex: 18
      m_TileSpriteIndex: 18
      m_TileMatrixIndex: 0
      m_TileColorIndex: 0
      m_ObjectToInstantiate: {fileID: 0}
      m_TileFlags: 1
      m_ColliderType: 1
  - first: {x: 86, y: 1, z: 0}
    second:
      m_TileIndex: 26
      m_TileSpriteIndex: 21
      m_TileMatrixIndex: 0
      m_TileColorIndex: 0
      m_ObjectToInstantiate: {fileID: 0}
      m_TileFlags: 1
      m_ColliderType: 1
  m_AnimatedTiles: {}
  m_TileAssetArray:
  - m_RefCount: 1
    m_Data: {fileID: 11400000, guid: 202218c63b358b047b97ae62f6f9e5c0, type: 2}
  - m_RefCount: 1
    m_Data: {fileID: 11400000, guid: 3d16daac8ee0dcb45b29e5fcda11030e, type: 2}
  - m_RefCount: 1
    m_Data: {fileID: 11400000, guid: 684241f36d1b7c74b963fad9ddbe4727, type: 2}
  - m_RefCount: 1
    m_Data: {fileID: 11400000, guid: 79eb290df0e3b454cb19d12f2602e76b, type: 2}
  - m_RefCount: 1
    m_Data: {fileID: 11400000, guid: 9bdc338ac63dcb741b8a1aab21de1851, type: 2}
  - m_RefCount: 1
    m_Data: {fileID: 11400000, guid: a0ca8826230fede40b8c9ea5daca0846, type: 2}
  - m_RefCount: 1
    m_Data: {fileID: 11400000, guid: 0539afbab3895d54f8557313f04126df, type: 2}
  - m_RefCount: 1
    m_Data: {fileID: 11400000, guid: 86e06545c7832f347a5b0c3404b8422c, type: 2}
  - m_RefCount: 1
    m_Data: {fileID: 11400000, guid: ff465845209005d42a8b462dc3cd01b6, type: 2}
  - m_RefCount: 1
    m_Data: {fileID: 11400000, guid: 4cbe180bb8b42ec468f380eb7ff97f79, type: 2}
  - m_RefCount: 1
    m_Data: {fileID: 11400000, guid: 0f78654643d5f164b8f83b30e4d19d68, type: 2}
  - m_RefCount: 1
    m_Data: {fileID: 11400000, guid: aa3b3ad7ec881dc468569b3ce19ed60a, type: 2}
  - m_RefCount: 1
    m_Data: {fileID: 11400000, guid: 24d2044458245de40a6b77e1d1ccca44, type: 2}
  - m_RefCount: 1
    m_Data: {fileID: 11400000, guid: fc74a325b8f83b442bbd82ac3550557e, type: 2}
  - m_RefCount: 1
    m_Data: {fileID: 0}
  - m_RefCount: 1
    m_Data: {fileID: 0}
  - m_RefCount: 1
    m_Data: {fileID: 0}
  - m_RefCount: 1
    m_Data: {fileID: 0}
  - m_RefCount: 1
    m_Data: {fileID: 0}
  - m_RefCount: 1
    m_Data: {fileID: 0}
  - m_RefCount: 1
    m_Data: {fileID: 0}
  - m_RefCount: 1
    m_Data: {fileID: 0}
  - m_RefCount: 1
    m_Data: {fileID: 0}
  - m_RefCount: 1
    m_Data: {fileID: 0}
  - m_RefCount: 1
    m_Data: {fileID: 0}
  - m_RefCount: 1
    m_Data: {fileID: 11400000, guid: 993bea81b4735dc4b97a27806f7c7c8c, type: 2}
  - m_RefCount: 1
    m_Data: {fileID: 11400000, guid: 4c13e848cf8cdc645bd3c29bb0afdfee, type: 2}
  - m_RefCount: 1
    m_Data: {fileID: 11400000, guid: 0b315c092f5d057499ef9e179909c317, type: 2}
  - m_RefCount: 1
    m_Data: {fileID: 11400000, guid: c510ed05f277ce54cb51bd6f4be34f87, type: 2}
  - m_RefCount: 1
    m_Data: {fileID: 11400000, guid: a7c65d80aad50944a8e1e71f1d6f4273, type: 2}
  - m_RefCount: 1
    m_Data: {fileID: 11400000, guid: 568196794effe8d49a01768477da8c06, type: 2}
  - m_RefCount: 1
    m_Data: {fileID: 11400000, guid: 282e37690d0dd994eb7d9e742f137ba8, type: 2}
  - m_RefCount: 1
    m_Data: {fileID: 11400000, guid: 02ff877c701edf8489f6dd38fd4b9845, type: 2}
  - m_RefCount: 1
    m_Data: {fileID: 11400000, guid: 3fe0cfb8b373c8c4087804680745e55b, type: 2}
  - m_RefCount: 1
    m_Data: {fileID: 11400000, guid: a2acf8cb13f0f7241aef8a49ef7168f0, type: 2}
  - m_RefCount: 1
    m_Data: {fileID: 11400000, guid: 55b408fd3e004384695a28babfe366d4, type: 2}
  - m_RefCount: 1
    m_Data: {fileID: 11400000, guid: f3b49cd16ce41324db18ed0e8875d18a, type: 2}
  - m_RefCount: 1
    m_Data: {fileID: 11400000, guid: b694dd77492ff654f8263dfef2c81434, type: 2}
  - m_RefCount: 1
    m_Data: {fileID: 11400000, guid: 5f3a3b153d2354c46a067771804e0fb8, type: 2}
  - m_RefCount: 1
    m_Data: {fileID: 11400000, guid: cd813a8a3993ff043a1ae70ac6a797c4, type: 2}
  - m_RefCount: 1
    m_Data: {fileID: 11400000, guid: b9b283ad3f06012448c123ba671086a6, type: 2}
  - m_RefCount: 1
    m_Data: {fileID: 11400000, guid: d968eadcda6902a4f84a1fa53b58de78, type: 2}
  - m_RefCount: 1
    m_Data: {fileID: 11400000, guid: 9aab78a0292632b4baeac8c60d0bf1aa, type: 2}
  - m_RefCount: 1
    m_Data: {fileID: 11400000, guid: 392dc6f5dc98bdf4c8e655c2b52efb3e, type: 2}
  - m_RefCount: 1
    m_Data: {fileID: 11400000, guid: 94eab4023537816468cf3c27b581518d, type: 2}
  - m_RefCount: 1
    m_Data: {fileID: 11400000, guid: 0902de648cf69df45a6f49b336aafa1d, type: 2}
  - m_RefCount: 1
    m_Data: {fileID: 11400000, guid: bda34c58eec17db4f885221b26a90fd6, type: 2}
  - m_RefCount: 1
    m_Data: {fileID: 11400000, guid: 83ba289958823324f8cf5f80a548941a, type: 2}
  - m_RefCount: 1
    m_Data: {fileID: 11400000, guid: b080ac6499bb59b429409806759e7cd3, type: 2}
  - m_RefCount: 1
    m_Data: {fileID: 11400000, guid: 9ba09ea51a3fb6449b134e51858acfb4, type: 2}
  - m_RefCount: 1
    m_Data: {fileID: 11400000, guid: fffcc452d50995a4aaf09c3a7132a9b8, type: 2}
  m_TileSpriteArray:
  - m_RefCount: 1
    m_Data: {fileID: 21300000, guid: 46741b85db629c04eac7a39572d446bb, type: 3}
  - m_RefCount: 1
    m_Data: {fileID: -3004054927286163546, guid: c34b3f15a2a8a6c46af2ab08ba950350,
      type: 3}
  - m_RefCount: 1
    m_Data: {fileID: -6320875967383708603, guid: 326925c3b62cb804796c50d16a2e3444,
      type: 3}
  - m_RefCount: 1
    m_Data: {fileID: 934638775964283953, guid: e5237e285e4dc12449e6934faf6f457f, type: 3}
  - m_RefCount: 1
    m_Data: {fileID: -7432412826210258936, guid: 07daf95ce0be62a4495fc933abc8f531,
      type: 3}
  - m_RefCount: 1
    m_Data: {fileID: -7305501478545132475, guid: 95205e92f68720e46ac0e4ab16cbc96a,
      type: 3}
  - m_RefCount: 1
    m_Data: {fileID: 8433350453215818003, guid: 10548616340904d4ab9a59442ebca37d,
      type: 3}
  - m_RefCount: 1
    m_Data: {fileID: -5637638114209507038, guid: 68d6c0c199e26144d81e14c6d0db6a9c,
      type: 3}
  - m_RefCount: 1
    m_Data: {fileID: 21300000, guid: f72302891d98a7847b47bd3635c8a923, type: 3}
  - m_RefCount: 1
    m_Data: {fileID: -2718189660088181846, guid: f72302891d98a7847b47bd3635c8a923,
      type: 3}
  - m_RefCount: 1
    m_Data: {fileID: -507171402392361189, guid: ab8e70cb9f23ba84eb2d7220a0dfc8f5,
      type: 3}
  - m_RefCount: 1
    m_Data: {fileID: 7645105269677939198, guid: 329046b91e3a6314e9a0e1ff62d7634e,
      type: 3}
  - m_RefCount: 1
    m_Data: {fileID: -9116402489067834861, guid: 1fa9c410435bb464abb4e343096ee2dc,
      type: 3}
  - m_RefCount: 1
    m_Data: {fileID: -2372651041909319453, guid: 24a9a6b6f37d75643a0ce73515e22674,
      type: 3}
  - m_RefCount: 2
    m_Data: {fileID: 21300000, guid: 3a02e0ff7c47f46438bd5f4b67d9beae, type: 3}
  - m_RefCount: 2
    m_Data: {fileID: -8356881508975672255, guid: 3a02e0ff7c47f46438bd5f4b67d9beae,
      type: 3}
  - m_RefCount: 2
    m_Data: {fileID: 6950169120149815342, guid: 5cc4a6522b4bf4b4b9b9dc44d0f6a2e5,
      type: 3}
  - m_RefCount: 2
    m_Data: {fileID: -8214333477807717858, guid: 3b56419796ec7a54ab0fe939bbdd607e,
      type: 3}
  - m_RefCount: 2
    m_Data: {fileID: 8882982800980956228, guid: 7f895f3fbb9e6df45bd067387a180d55,
      type: 3}
  - m_RefCount: 2
    m_Data: {fileID: -4894346642635099930, guid: b91d1f7e21eafcf4d89253c7590b1d95,
      type: 3}
  - m_RefCount: 2
    m_Data: {fileID: 4988704199052225827, guid: 282755a444b41b7408ee4474dee4e849,
      type: 3}
  - m_RefCount: 2
    m_Data: {fileID: -8822362396292307120, guid: ff25f62d719ce864782ed1f23ddb778e,
      type: 3}
  - m_RefCount: 2
    m_Data: {fileID: -4853770584572790085, guid: c5b8cf122b3d41f4980714cf54326476,
      type: 3}
  - m_RefCount: 2
    m_Data: {fileID: 4967757045463728992, guid: b8c5c27672b618047a2b5d6db3da68d6,
      type: 3}
  - m_RefCount: 2
    m_Data: {fileID: 874827082702333077, guid: 54354d6304f5b7b4d85bcab1e491d3ec, type: 3}
  - m_RefCount: 1
    m_Data: {fileID: 1922234848089956747, guid: 9f6d7f3408a8c294dbbac872b4bc29d2,
      type: 3}
  - m_RefCount: 1
    m_Data: {fileID: 2516700571916901712, guid: 558fa458be9c9484b98b7e91d653ae27,
      type: 3}
  - m_RefCount: 1
    m_Data: {fileID: -5936748718688286026, guid: 0dae58a547b98a24e9a1a6d2488d2ecf,
      type: 3}
  - m_RefCount: 1
    m_Data: {fileID: 21300000, guid: a9ef0f1e285a79f44a9ba9897bc80ea5, type: 3}
  - m_RefCount: 1
    m_Data: {fileID: -2213606668912200157, guid: a9ef0f1e285a79f44a9ba9897bc80ea5,
      type: 3}
  - m_RefCount: 1
    m_Data: {fileID: -2901701103672578145, guid: c65e90d06b4017a47b8877e9e59f51e7,
      type: 3}
  - m_RefCount: 1
    m_Data: {fileID: -5759891587060671639, guid: f737975d6bf3e8441baae5afa7ccdf37,
      type: 3}
  - m_RefCount: 1
    m_Data: {fileID: -3482701875994086550, guid: 0c7eb890828675847b13611f9a1da7fd,
      type: 3}
  - m_RefCount: 1
    m_Data: {fileID: -565347384133671522, guid: acf6326da57215e45919136279a1fb75,
      type: 3}
  - m_RefCount: 1
    m_Data: {fileID: -7584174701797487750, guid: 879d0312a0ba08c44b7dde59178e1ca5,
      type: 3}
  - m_RefCount: 1
    m_Data: {fileID: 8999803332565486774, guid: 70d5557f34b89b640b570c599fa3a9d8,
      type: 3}
  - m_RefCount: 1
    m_Data: {fileID: 787484624349366258, guid: 6742c9bc42a5ea845ace599ed6659ba8, type: 3}
  - m_RefCount: 1
    m_Data: {fileID: 8809759055264613502, guid: 501652aed40877f4f8a400c64e1be134,
      type: 3}
  - m_RefCount: 1
    m_Data: {fileID: -1526097901939069628, guid: 3de2dc425f205a34cb4461dc680402b1,
      type: 3}
  - m_RefCount: 1
    m_Data: {fileID: 1225288683681708120, guid: 9104dfa5c088b504c992772cd6fdd72c,
      type: 3}
  m_TileMatrixArray:
  - m_RefCount: 51
    m_Data:
      e00: 1
      e01: 0
      e02: 0
      e03: 0
      e10: 0
      e11: 1
      e12: 0
      e13: 0
      e20: 0
      e21: 0
      e22: 1
      e23: 0
      e30: 0
      e31: 0
      e32: 0
      e33: 1
  m_TileColorArray:
  - m_RefCount: 51
    m_Data: {r: 1, g: 1, b: 1, a: 1}
  m_AnimationFrameRate: 1
  m_Color: {r: 1, g: 1, b: 1, a: 1}
  m_Origin: {x: -21, y: -12, z: 0}
  m_Size: {x: 111, y: 14, z: 1}
  m_TileAnchor: {x: 0.5, y: 0.5, z: 0}
  m_TileOrientation: 0
  m_TileOrientationMatrix:
    e00: 1
    e01: 0
    e02: 0
    e03: 0
    e10: 0
    e11: 1
    e12: 0
    e13: 0
    e20: 0
    e21: 0
    e22: 1
    e23: 0
    e30: 0
    e31: 0
    e32: 0
    e33: 1
--- !u!483693784 &6530141811628666893
TilemapRenderer:
  m_ObjectHideFlags: 0
  m_CorrespondingSourceObject: {fileID: 0}
  m_PrefabInstance: {fileID: 0}
  m_PrefabAsset: {fileID: 0}
  m_GameObject: {fileID: 6030570873335734394}
  m_Enabled: 0
  m_CastShadows: 0
  m_ReceiveShadows: 0
  m_DynamicOccludee: 0
  m_MotionVectors: 1
  m_LightProbeUsage: 0
  m_ReflectionProbeUsage: 0
  m_RenderingLayerMask: 1
  m_RendererPriority: 0
  m_Materials:
  - {fileID: 2100000, guid: a97c105638bdf8b4a8650670310a4cd3, type: 2}
  m_StaticBatchInfo:
    firstSubMesh: 0
    subMeshCount: 0
  m_StaticBatchRoot: {fileID: 0}
  m_ProbeAnchor: {fileID: 0}
  m_LightProbeVolumeOverride: {fileID: 0}
  m_ScaleInLightmap: 1
  m_ReceiveGI: 1
  m_PreserveUVs: 0
  m_IgnoreNormalsForChartDetection: 0
  m_ImportantGI: 0
  m_StitchLightmapSeams: 1
  m_SelectedEditorRenderState: 0
  m_MinimumChartSize: 4
  m_AutoUVMaxDistance: 0.5
  m_AutoUVMaxAngle: 89
  m_LightmapParameters: {fileID: 0}
  m_SortingLayerID: 0
  m_SortingLayer: 0
  m_SortingOrder: 0
  m_ChunkSize: {x: 32, y: 32, z: 32}
  m_ChunkCullingBounds: {x: 2.84375, y: 0.3125, z: 0}
  m_MaxChunkCount: 16
  m_MaxFrameAge: 16
  m_SortOrder: 0
  m_Mode: 0
  m_DetectChunkCullingBounds: 0
  m_MaskInteraction: 0
--- !u!114 &-3661570437788023894
MonoBehaviour:
  m_ObjectHideFlags: 0
  m_CorrespondingSourceObject: {fileID: 0}
  m_PrefabInstance: {fileID: 0}
  m_PrefabAsset: {fileID: 0}
  m_GameObject: {fileID: 0}
  m_Enabled: 1
  m_EditorHideFlags: 0
  m_Script: {fileID: 12395, guid: 0000000000000000e000000000000000, type: 0}
  m_Name: Palette Settings
  m_EditorClassIdentifier: 
  cellSizing: 0
