%YAML 1.1
%TAG !u! tag:unity3d.com,2011:
--- !u!1 &17803402926698171
GameObject:
  m_ObjectHideFlags: 0
  m_CorrespondingSourceObject: {fileID: 0}
  m_PrefabInstance: {fileID: 0}
  m_PrefabAsset: {fileID: 0}
  serializedVersion: 6
  m_Component:
  - component: {fileID: 4340771216180285221}
  - component: {fileID: 5579746916105558433}
  - component: {fileID: 4018195790931627442}
  m_Layer: 31
  m_Name: Layer1
  m_TagString: Untagged
  m_Icon: {fileID: 0}
  m_NavMeshLayer: 0
  m_StaticEditorFlags: 0
  m_IsActive: 1
--- !u!4 &4340771216180285221
Transform:
  m_ObjectHideFlags: 0
  m_CorrespondingSourceObject: {fileID: 0}
  m_PrefabInstance: {fileID: 0}
  m_PrefabAsset: {fileID: 0}
  m_GameObject: {fileID: 17803402926698171}
  m_LocalRotation: {x: -0, y: -0, z: -0, w: 1}
  m_LocalPosition: {x: 0, y: 0, z: 0}
  m_LocalScale: {x: 1, y: 1, z: 1}
  m_Children: []
  m_Father: {fileID: 4605201313800257290}
  m_RootOrder: 0
  m_LocalEulerAnglesHint: {x: 0, y: 0, z: 0}
--- !u!1839735485 &5579746916105558433
Tilemap:
  m_ObjectHideFlags: 0
  m_CorrespondingSourceObject: {fileID: 0}
  m_PrefabInstance: {fileID: 0}
  m_PrefabAsset: {fileID: 0}
  m_GameObject: {fileID: 17803402926698171}
  m_Enabled: 1
  m_Tiles:
  - first: {x: -1, y: -3, z: 0}
    second:
      m_TileIndex: 34
      m_TileSpriteIndex: 34
      m_TileMatrixIndex: 0
      m_TileColorIndex: 0
      m_ObjectToInstantiate: {fileID: 0}
      m_TileFlags: 1
      m_ColliderType: 1
  - first: {x: 0, y: -3, z: 0}
    second:
      m_TileIndex: 35
      m_TileSpriteIndex: 35
      m_TileMatrixIndex: 0
      m_TileColorIndex: 0
      m_ObjectToInstantiate: {fileID: 0}
      m_TileFlags: 1
      m_ColliderType: 1
  - first: {x: 1, y: -3, z: 0}
    second:
      m_TileIndex: 36
      m_TileSpriteIndex: 36
      m_TileMatrixIndex: 0
      m_TileColorIndex: 0
      m_ObjectToInstantiate: {fileID: 0}
      m_TileFlags: 1
      m_ColliderType: 1
  - first: {x: 2, y: -3, z: 0}
    second:
      m_TileIndex: 37
      m_TileSpriteIndex: 37
      m_TileMatrixIndex: 0
      m_TileColorIndex: 0
      m_ObjectToInstantiate: {fileID: 0}
      m_TileFlags: 1
      m_ColliderType: 1
  - first: {x: 3, y: -3, z: 0}
    second:
      m_TileIndex: 38
      m_TileSpriteIndex: 38
      m_TileMatrixIndex: 0
      m_TileColorIndex: 0
      m_ObjectToInstantiate: {fileID: 0}
      m_TileFlags: 1
      m_ColliderType: 1
  - first: {x: 4, y: -3, z: 0}
    second:
      m_TileIndex: 39
      m_TileSpriteIndex: 39
      m_TileMatrixIndex: 0
      m_TileColorIndex: 0
      m_ObjectToInstantiate: {fileID: 0}
      m_TileFlags: 1
      m_ColliderType: 1
  - first: {x: 5, y: -3, z: 0}
    second:
      m_TileIndex: 40
      m_TileSpriteIndex: 40
      m_TileMatrixIndex: 0
      m_TileColorIndex: 0
      m_ObjectToInstantiate: {fileID: 0}
      m_TileFlags: 1
      m_ColliderType: 1
  - first: {x: 6, y: -3, z: 0}
    second:
      m_TileIndex: 41
      m_TileSpriteIndex: 41
      m_TileMatrixIndex: 0
      m_TileColorIndex: 0
      m_ObjectToInstantiate: {fileID: 0}
      m_TileFlags: 1
      m_ColliderType: 1
  - first: {x: 8, y: -3, z: 0}
    second:
      m_TileIndex: 42
      m_TileSpriteIndex: 42
      m_TileMatrixIndex: 0
      m_TileColorIndex: 0
      m_ObjectToInstantiate: {fileID: 0}
      m_TileFlags: 1
      m_ColliderType: 1
  - first: {x: 9, y: -3, z: 0}
    second:
      m_TileIndex: 43
      m_TileSpriteIndex: 43
      m_TileMatrixIndex: 0
      m_TileColorIndex: 0
      m_ObjectToInstantiate: {fileID: 0}
      m_TileFlags: 1
      m_ColliderType: 1
  - first: {x: 11, y: -3, z: 0}
    second:
      m_TileIndex: 44
      m_TileSpriteIndex: 44
      m_TileMatrixIndex: 0
      m_TileColorIndex: 0
      m_ObjectToInstantiate: {fileID: 0}
      m_TileFlags: 1
      m_ColliderType: 1
  - first: {x: 15, y: -3, z: 0}
    second:
      m_TileIndex: 45
      m_TileSpriteIndex: 45
      m_TileMatrixIndex: 0
      m_TileColorIndex: 0
      m_ObjectToInstantiate: {fileID: 0}
      m_TileFlags: 1
      m_ColliderType: 1
  - first: {x: 16, y: -3, z: 0}
    second:
      m_TileIndex: 46
      m_TileSpriteIndex: 46
      m_TileMatrixIndex: 0
      m_TileColorIndex: 0
      m_ObjectToInstantiate: {fileID: 0}
      m_TileFlags: 1
      m_ColliderType: 1
  - first: {x: -1, y: -2, z: 0}
    second:
      m_TileIndex: 18
      m_TileSpriteIndex: 18
      m_TileMatrixIndex: 0
      m_TileColorIndex: 0
      m_ObjectToInstantiate: {fileID: 0}
      m_TileFlags: 1
      m_ColliderType: 1
  - first: {x: 0, y: -2, z: 0}
    second:
      m_TileIndex: 19
      m_TileSpriteIndex: 19
      m_TileMatrixIndex: 0
      m_TileColorIndex: 0
      m_ObjectToInstantiate: {fileID: 0}
      m_TileFlags: 1
      m_ColliderType: 1
  - first: {x: 1, y: -2, z: 0}
    second:
      m_TileIndex: 20
      m_TileSpriteIndex: 20
      m_TileMatrixIndex: 0
      m_TileColorIndex: 0
      m_ObjectToInstantiate: {fileID: 0}
      m_TileFlags: 1
      m_ColliderType: 1
  - first: {x: 2, y: -2, z: 0}
    second:
      m_TileIndex: 21
      m_TileSpriteIndex: 21
      m_TileMatrixIndex: 0
      m_TileColorIndex: 0
      m_ObjectToInstantiate: {fileID: 0}
      m_TileFlags: 1
      m_ColliderType: 1
  - first: {x: 3, y: -2, z: 0}
    second:
      m_TileIndex: 22
      m_TileSpriteIndex: 22
      m_TileMatrixIndex: 0
      m_TileColorIndex: 0
      m_ObjectToInstantiate: {fileID: 0}
      m_TileFlags: 1
      m_ColliderType: 1
  - first: {x: 4, y: -2, z: 0}
    second:
      m_TileIndex: 23
      m_TileSpriteIndex: 23
      m_TileMatrixIndex: 0
      m_TileColorIndex: 0
      m_ObjectToInstantiate: {fileID: 0}
      m_TileFlags: 1
      m_ColliderType: 1
  - first: {x: 5, y: -2, z: 0}
    second:
      m_TileIndex: 24
      m_TileSpriteIndex: 24
      m_TileMatrixIndex: 0
      m_TileColorIndex: 0
      m_ObjectToInstantiate: {fileID: 0}
      m_TileFlags: 1
      m_ColliderType: 1
  - first: {x: 6, y: -2, z: 0}
    second:
      m_TileIndex: 25
      m_TileSpriteIndex: 25
      m_TileMatrixIndex: 0
      m_TileColorIndex: 0
      m_ObjectToInstantiate: {fileID: 0}
      m_TileFlags: 1
      m_ColliderType: 1
  - first: {x: 7, y: -2, z: 0}
    second:
      m_TileIndex: 26
      m_TileSpriteIndex: 26
      m_TileMatrixIndex: 0
      m_TileColorIndex: 0
      m_ObjectToInstantiate: {fileID: 0}
      m_TileFlags: 1
      m_ColliderType: 1
  - first: {x: 8, y: -2, z: 0}
    second:
      m_TileIndex: 27
      m_TileSpriteIndex: 27
      m_TileMatrixIndex: 0
      m_TileColorIndex: 0
      m_ObjectToInstantiate: {fileID: 0}
      m_TileFlags: 1
      m_ColliderType: 1
  - first: {x: 9, y: -2, z: 0}
    second:
      m_TileIndex: 28
      m_TileSpriteIndex: 28
      m_TileMatrixIndex: 0
      m_TileColorIndex: 0
      m_ObjectToInstantiate: {fileID: 0}
      m_TileFlags: 1
      m_ColliderType: 1
  - first: {x: 11, y: -2, z: 0}
    second:
      m_TileIndex: 29
      m_TileSpriteIndex: 29
      m_TileMatrixIndex: 0
      m_TileColorIndex: 0
      m_ObjectToInstantiate: {fileID: 0}
      m_TileFlags: 1
      m_ColliderType: 1
  - first: {x: 12, y: -2, z: 0}
    second:
      m_TileIndex: 30
      m_TileSpriteIndex: 30
      m_TileMatrixIndex: 0
      m_TileColorIndex: 0
      m_ObjectToInstantiate: {fileID: 0}
      m_TileFlags: 1
      m_ColliderType: 1
  - first: {x: 13, y: -2, z: 0}
    second:
      m_TileIndex: 31
      m_TileSpriteIndex: 31
      m_TileMatrixIndex: 0
      m_TileColorIndex: 0
      m_ObjectToInstantiate: {fileID: 0}
      m_TileFlags: 1
      m_ColliderType: 1
  - first: {x: 14, y: -2, z: 0}
    second:
      m_TileIndex: 32
      m_TileSpriteIndex: 32
      m_TileMatrixIndex: 0
      m_TileColorIndex: 0
      m_ObjectToInstantiate: {fileID: 0}
      m_TileFlags: 1
      m_ColliderType: 1
  - first: {x: 17, y: -2, z: 0}
    second:
      m_TileIndex: 33
      m_TileSpriteIndex: 33
      m_TileMatrixIndex: 0
      m_TileColorIndex: 0
      m_ObjectToInstantiate: {fileID: 0}
      m_TileFlags: 1
      m_ColliderType: 1
  - first: {x: -1, y: -1, z: 0}
    second:
      m_TileIndex: 0
      m_TileSpriteIndex: 0
      m_TileMatrixIndex: 0
      m_TileColorIndex: 0
      m_ObjectToInstantiate: {fileID: 0}
      m_TileFlags: 1
      m_ColliderType: 1
  - first: {x: 0, y: -1, z: 0}
    second:
      m_TileIndex: 1
      m_TileSpriteIndex: 1
      m_TileMatrixIndex: 0
      m_TileColorIndex: 0
      m_ObjectToInstantiate: {fileID: 0}
      m_TileFlags: 1
      m_ColliderType: 1
  - first: {x: 1, y: -1, z: 0}
    second:
      m_TileIndex: 2
      m_TileSpriteIndex: 2
      m_TileMatrixIndex: 0
      m_TileColorIndex: 0
      m_ObjectToInstantiate: {fileID: 0}
      m_TileFlags: 1
      m_ColliderType: 1
  - first: {x: 2, y: -1, z: 0}
    second:
      m_TileIndex: 3
      m_TileSpriteIndex: 3
      m_TileMatrixIndex: 0
      m_TileColorIndex: 0
      m_ObjectToInstantiate: {fileID: 0}
      m_TileFlags: 1
      m_ColliderType: 1
  - first: {x: 3, y: -1, z: 0}
    second:
      m_TileIndex: 4
      m_TileSpriteIndex: 4
      m_TileMatrixIndex: 0
      m_TileColorIndex: 0
      m_ObjectToInstantiate: {fileID: 0}
      m_TileFlags: 1
      m_ColliderType: 1
  - first: {x: 4, y: -1, z: 0}
    second:
      m_TileIndex: 5
      m_TileSpriteIndex: 5
      m_TileMatrixIndex: 0
      m_TileColorIndex: 0
      m_ObjectToInstantiate: {fileID: 0}
      m_TileFlags: 1
      m_ColliderType: 1
  - first: {x: 5, y: -1, z: 0}
    second:
      m_TileIndex: 6
      m_TileSpriteIndex: 6
      m_TileMatrixIndex: 0
      m_TileColorIndex: 0
      m_ObjectToInstantiate: {fileID: 0}
      m_TileFlags: 1
      m_ColliderType: 1
  - first: {x: 6, y: -1, z: 0}
    second:
      m_TileIndex: 7
      m_TileSpriteIndex: 7
      m_TileMatrixIndex: 0
      m_TileColorIndex: 0
      m_ObjectToInstantiate: {fileID: 0}
      m_TileFlags: 1
      m_ColliderType: 1
  - first: {x: 7, y: -1, z: 0}
    second:
      m_TileIndex: 8
      m_TileSpriteIndex: 8
      m_TileMatrixIndex: 0
      m_TileColorIndex: 0
      m_ObjectToInstantiate: {fileID: 0}
      m_TileFlags: 1
      m_ColliderType: 1
  - first: {x: 8, y: -1, z: 0}
    second:
      m_TileIndex: 9
      m_TileSpriteIndex: 9
      m_TileMatrixIndex: 0
      m_TileColorIndex: 0
      m_ObjectToInstantiate: {fileID: 0}
      m_TileFlags: 1
      m_ColliderType: 1
  - first: {x: 10, y: -1, z: 0}
    second:
      m_TileIndex: 10
      m_TileSpriteIndex: 10
      m_TileMatrixIndex: 0
      m_TileColorIndex: 0
      m_ObjectToInstantiate: {fileID: 0}
      m_TileFlags: 1
      m_ColliderType: 1
  - first: {x: 11, y: -1, z: 0}
    second:
      m_TileIndex: 11
      m_TileSpriteIndex: 11
      m_TileMatrixIndex: 0
      m_TileColorIndex: 0
      m_ObjectToInstantiate: {fileID: 0}
      m_TileFlags: 1
      m_ColliderType: 1
  - first: {x: 12, y: -1, z: 0}
    second:
      m_TileIndex: 12
      m_TileSpriteIndex: 12
      m_TileMatrixIndex: 0
      m_TileColorIndex: 0
      m_ObjectToInstantiate: {fileID: 0}
      m_TileFlags: 1
      m_ColliderType: 1
  - first: {x: 13, y: -1, z: 0}
    second:
      m_TileIndex: 13
      m_TileSpriteIndex: 13
      m_TileMatrixIndex: 0
      m_TileColorIndex: 0
      m_ObjectToInstantiate: {fileID: 0}
      m_TileFlags: 1
      m_ColliderType: 1
  - first: {x: 14, y: -1, z: 0}
    second:
      m_TileIndex: 14
      m_TileSpriteIndex: 14
      m_TileMatrixIndex: 0
      m_TileColorIndex: 0
      m_ObjectToInstantiate: {fileID: 0}
      m_TileFlags: 1
      m_ColliderType: 1
  - first: {x: 15, y: -1, z: 0}
    second:
      m_TileIndex: 15
      m_TileSpriteIndex: 15
      m_TileMatrixIndex: 0
      m_TileColorIndex: 0
      m_ObjectToInstantiate: {fileID: 0}
      m_TileFlags: 1
      m_ColliderType: 1
  - first: {x: 16, y: -1, z: 0}
    second:
      m_TileIndex: 16
      m_TileSpriteIndex: 16
      m_TileMatrixIndex: 0
      m_TileColorIndex: 0
      m_ObjectToInstantiate: {fileID: 0}
      m_TileFlags: 1
      m_ColliderType: 1
  - first: {x: 17, y: -1, z: 0}
    second:
      m_TileIndex: 17
      m_TileSpriteIndex: 17
      m_TileMatrixIndex: 0
      m_TileColorIndex: 0
      m_ObjectToInstantiate: {fileID: 0}
      m_TileFlags: 1
      m_ColliderType: 1
  m_AnimatedTiles: {}
  m_TileAssetArray:
  - m_RefCount: 1
    m_Data: {fileID: 11400000, guid: 9f89555ec9b6bdc4d8c76bad83e22556, type: 2}
  - m_RefCount: 1
    m_Data: {fileID: 11400000, guid: 2936b0c80d604954c8f99bca4fa1476f, type: 2}
  - m_RefCount: 1
    m_Data: {fileID: 11400000, guid: 0cfe3d2e35065ff4bb8fc3bdcb25da79, type: 2}
  - m_RefCount: 1
    m_Data: {fileID: 11400000, guid: 403e23aded5463044a8f0bdf9b458878, type: 2}
  - m_RefCount: 1
    m_Data: {fileID: 11400000, guid: c93486c6f2235fa48bfc1584f22e84e9, type: 2}
  - m_RefCount: 1
    m_Data: {fileID: 11400000, guid: 7224e65cb6f82ed4186f0677f6c75f9c, type: 2}
  - m_RefCount: 1
    m_Data: {fileID: 11400000, guid: c09bc4587f377644b93aa788d2c300b7, type: 2}
  - m_RefCount: 1
    m_Data: {fileID: 11400000, guid: 034422003881ff448a3a45dffc298581, type: 2}
  - m_RefCount: 1
    m_Data: {fileID: 11400000, guid: ec7952d2677226e43b1f95bc3ee79e1b, type: 2}
  - m_RefCount: 1
    m_Data: {fileID: 11400000, guid: f2ec80ddefea43d489cb73a0894294c0, type: 2}
  - m_RefCount: 1
    m_Data: {fileID: 11400000, guid: aeaf7caacf5389a49bfcb67c9571fd81, type: 2}
  - m_RefCount: 1
    m_Data: {fileID: 11400000, guid: 36b59271cd3a20f4ca15b7af4f3a40bf, type: 2}
  - m_RefCount: 1
    m_Data: {fileID: 11400000, guid: 837c00a7ecbbba247aef3e09b3a25ab2, type: 2}
  - m_RefCount: 1
    m_Data: {fileID: 11400000, guid: f24ba3fd0b411e74580d0ec5edf65b82, type: 2}
  - m_RefCount: 1
    m_Data: {fileID: 11400000, guid: 21ef21e562852bc4b80cf748caab87b4, type: 2}
  - m_RefCount: 1
    m_Data: {fileID: 11400000, guid: af754e14a2fea0b4a92dd2d2c06ad071, type: 2}
  - m_RefCount: 1
    m_Data: {fileID: 11400000, guid: d5754f92877ac1d4aae4e2f53aff5dfb, type: 2}
  - m_RefCount: 1
    m_Data: {fileID: 11400000, guid: 2503b2de51d3d16429ac78c899d0ad65, type: 2}
  - m_RefCount: 1
    m_Data: {fileID: 11400000, guid: 8e5d142cc0509bf449fdc03ebea22627, type: 2}
  - m_RefCount: 1
    m_Data: {fileID: 11400000, guid: 8f93163db385c024b9720ef03a63e9dd, type: 2}
  - m_RefCount: 1
    m_Data: {fileID: 11400000, guid: 5a9b952ba010230449c37f6f4c0920d5, type: 2}
  - m_RefCount: 1
    m_Data: {fileID: 11400000, guid: 09eb23e095bc4794fb08be4fd2c50744, type: 2}
  - m_RefCount: 1
    m_Data: {fileID: 11400000, guid: 0b748c6c51b2d6b44ba8b82b04fad7e5, type: 2}
  - m_RefCount: 1
    m_Data: {fileID: 11400000, guid: 2db6b5d2ba6866d428ba2489d7180bb0, type: 2}
  - m_RefCount: 1
    m_Data: {fileID: 11400000, guid: d2f41c1cdb5ff7144b649b22391e263a, type: 2}
  - m_RefCount: 1
    m_Data: {fileID: 11400000, guid: ca412f3aa4002794b9c91eaa4b948760, type: 2}
  - m_RefCount: 1
    m_Data: {fileID: 11400000, guid: a7a66fc7ae9d0a649be09444b9647140, type: 2}
  - m_RefCount: 1
    m_Data: {fileID: 11400000, guid: f0049f141a23acc40a0414dfdf535297, type: 2}
  - m_RefCount: 1
    m_Data: {fileID: 11400000, guid: 18b2d182cd2dc4e4c9f2e5022b587a0b, type: 2}
  - m_RefCount: 1
    m_Data: {fileID: 11400000, guid: 8eab21cfc68b08d449253e5cf9f5a1b7, type: 2}
  - m_RefCount: 1
    m_Data: {fileID: 11400000, guid: 6326ebe4ec19a9c449a156fc1074943c, type: 2}
  - m_RefCount: 1
    m_Data: {fileID: 11400000, guid: fa669c8e3058ab345ba364c332c9fc65, type: 2}
  - m_RefCount: 1
    m_Data: {fileID: 11400000, guid: 8059512497fd2dc4881eaba39b170f83, type: 2}
  - m_RefCount: 1
    m_Data: {fileID: 11400000, guid: e15aade56936711439f8a13a7c24aa9e, type: 2}
  - m_RefCount: 1
    m_Data: {fileID: 11400000, guid: 50727fa5b4d397140b86612477958c12, type: 2}
  - m_RefCount: 1
    m_Data: {fileID: 11400000, guid: 166062f9c1ef0f34fb832eebfae7564f, type: 2}
  - m_RefCount: 1
    m_Data: {fileID: 11400000, guid: 02d1029847efc644dbebac709ade0ebe, type: 2}
  - m_RefCount: 1
    m_Data: {fileID: 11400000, guid: a05e294a07fadaf44a78268a8f28fad6, type: 2}
  - m_RefCount: 1
    m_Data: {fileID: 11400000, guid: 0a76d1bb854b863419bf1d710d2acdd6, type: 2}
  - m_RefCount: 1
    m_Data: {fileID: 11400000, guid: c900896baef7c594fa9dcac6ae3751b3, type: 2}
  - m_RefCount: 1
    m_Data: {fileID: 11400000, guid: c1683e359d9f57743ae5ee56ab868ff9, type: 2}
  - m_RefCount: 1
    m_Data: {fileID: 11400000, guid: c5a102ed986841a42b74ea394dea5589, type: 2}
  - m_RefCount: 1
    m_Data: {fileID: 11400000, guid: d826cc8ffc361ff4cbe05d5552663200, type: 2}
  - m_RefCount: 1
    m_Data: {fileID: 11400000, guid: dd51e4d0fe6b15046971db6b4749a1c1, type: 2}
  - m_RefCount: 1
    m_Data: {fileID: 11400000, guid: 4cd8781a189002746a9039c15d481a05, type: 2}
  - m_RefCount: 1
    m_Data: {fileID: 11400000, guid: 5898aa2839a7ad740ab999ed2d816746, type: 2}
  - m_RefCount: 1
    m_Data: {fileID: 11400000, guid: e41b348bd4d239849a71db0e10fbe2d2, type: 2}
  m_TileSpriteArray:
  - m_RefCount: 1
    m_Data: {fileID: -5062331958373210415, guid: 590c0519b1c09c448ab7764aca6a26ba,
      type: 3}
  - m_RefCount: 1
    m_Data: {fileID: 644909069499471138, guid: 590c0519b1c09c448ab7764aca6a26ba, type: 3}
  - m_RefCount: 1
    m_Data: {fileID: -405726404438858092, guid: 590c0519b1c09c448ab7764aca6a26ba,
      type: 3}
  - m_RefCount: 1
    m_Data: {fileID: -5930851224013036649, guid: 590c0519b1c09c448ab7764aca6a26ba,
      type: 3}
  - m_RefCount: 1
    m_Data: {fileID: -1978491938896285796, guid: 590c0519b1c09c448ab7764aca6a26ba,
      type: 3}
  - m_RefCount: 1
    m_Data: {fileID: -5163334732328182641, guid: 590c0519b1c09c448ab7764aca6a26ba,
      type: 3}
  - m_RefCount: 1
    m_Data: {fileID: -903567237409364007, guid: 590c0519b1c09c448ab7764aca6a26ba,
      type: 3}
  - m_RefCount: 1
    m_Data: {fileID: -1364653672472373783, guid: 590c0519b1c09c448ab7764aca6a26ba,
      type: 3}
  - m_RefCount: 1
    m_Data: {fileID: -7968023151789563699, guid: 590c0519b1c09c448ab7764aca6a26ba,
      type: 3}
  - m_RefCount: 1
    m_Data: {fileID: -7299914439633228642, guid: 590c0519b1c09c448ab7764aca6a26ba,
      type: 3}
  - m_RefCount: 1
    m_Data: {fileID: -6146088755503624877, guid: 590c0519b1c09c448ab7764aca6a26ba,
      type: 3}
  - m_RefCount: 1
    m_Data: {fileID: 587396118384433815, guid: 590c0519b1c09c448ab7764aca6a26ba, type: 3}
  - m_RefCount: 1
    m_Data: {fileID: 3330226949289717755, guid: 590c0519b1c09c448ab7764aca6a26ba,
      type: 3}
  - m_RefCount: 1
    m_Data: {fileID: 2793361264221684073, guid: 590c0519b1c09c448ab7764aca6a26ba,
      type: 3}
  - m_RefCount: 1
    m_Data: {fileID: -2814492065318847716, guid: 590c0519b1c09c448ab7764aca6a26ba,
      type: 3}
  - m_RefCount: 1
    m_Data: {fileID: -2109037235988697761, guid: 590c0519b1c09c448ab7764aca6a26ba,
      type: 3}
  - m_RefCount: 1
    m_Data: {fileID: -8658877909433751153, guid: 590c0519b1c09c448ab7764aca6a26ba,
      type: 3}
  - m_RefCount: 1
    m_Data: {fileID: 4150211723717986851, guid: 590c0519b1c09c448ab7764aca6a26ba,
      type: 3}
  - m_RefCount: 1
    m_Data: {fileID: 7633722128734968946, guid: 590c0519b1c09c448ab7764aca6a26ba,
      type: 3}
  - m_RefCount: 1
    m_Data: {fileID: -870756128844510148, guid: 590c0519b1c09c448ab7764aca6a26ba,
      type: 3}
  - m_RefCount: 1
    m_Data: {fileID: -1799501624327177893, guid: 590c0519b1c09c448ab7764aca6a26ba,
      type: 3}
  - m_RefCount: 1
    m_Data: {fileID: -8266339998132859680, guid: 590c0519b1c09c448ab7764aca6a26ba,
      type: 3}
  - m_RefCount: 1
    m_Data: {fileID: 3412551753421053627, guid: 590c0519b1c09c448ab7764aca6a26ba,
      type: 3}
  - m_RefCount: 1
    m_Data: {fileID: 323918860777368587, guid: 590c0519b1c09c448ab7764aca6a26ba, type: 3}
  - m_RefCount: 1
    m_Data: {fileID: -3500949866286841198, guid: 590c0519b1c09c448ab7764aca6a26ba,
      type: 3}
  - m_RefCount: 1
    m_Data: {fileID: -3458927229283376825, guid: 590c0519b1c09c448ab7764aca6a26ba,
      type: 3}
  - m_RefCount: 1
    m_Data: {fileID: 5990073248614000795, guid: 590c0519b1c09c448ab7764aca6a26ba,
      type: 3}
  - m_RefCount: 1
    m_Data: {fileID: -6139259234840442787, guid: 590c0519b1c09c448ab7764aca6a26ba,
      type: 3}
  - m_RefCount: 1
    m_Data: {fileID: 1177065674458494860, guid: 590c0519b1c09c448ab7764aca6a26ba,
      type: 3}
  - m_RefCount: 1
    m_Data: {fileID: -36029938650459608, guid: 590c0519b1c09c448ab7764aca6a26ba, type: 3}
  - m_RefCount: 1
    m_Data: {fileID: 3363026071557555940, guid: 590c0519b1c09c448ab7764aca6a26ba,
      type: 3}
  - m_RefCount: 1
    m_Data: {fileID: -5063769122175816508, guid: 590c0519b1c09c448ab7764aca6a26ba,
      type: 3}
  - m_RefCount: 1
    m_Data: {fileID: -8489925675297838006, guid: 590c0519b1c09c448ab7764aca6a26ba,
      type: 3}
  - m_RefCount: 1
    m_Data: {fileID: 8417422735875645587, guid: 590c0519b1c09c448ab7764aca6a26ba,
      type: 3}
  - m_RefCount: 1
    m_Data: {fileID: -795762787544826043, guid: 590c0519b1c09c448ab7764aca6a26ba,
      type: 3}
  - m_RefCount: 1
    m_Data: {fileID: 8918195241088366035, guid: 590c0519b1c09c448ab7764aca6a26ba,
      type: 3}
  - m_RefCount: 1
    m_Data: {fileID: -4163531420528383032, guid: 590c0519b1c09c448ab7764aca6a26ba,
      type: 3}
  - m_RefCount: 1
    m_Data: {fileID: -3831788775779879603, guid: 590c0519b1c09c448ab7764aca6a26ba,
      type: 3}
  - m_RefCount: 1
    m_Data: {fileID: 6141686493158440516, guid: 590c0519b1c09c448ab7764aca6a26ba,
      type: 3}
  - m_RefCount: 1
    m_Data: {fileID: -3025010882572897041, guid: 590c0519b1c09c448ab7764aca6a26ba,
      type: 3}
  - m_RefCount: 1
    m_Data: {fileID: 5062129680666707397, guid: 590c0519b1c09c448ab7764aca6a26ba,
      type: 3}
  - m_RefCount: 1
    m_Data: {fileID: 1133131499692639366, guid: 590c0519b1c09c448ab7764aca6a26ba,
      type: 3}
  - m_RefCount: 1
    m_Data: {fileID: 7477352811036639168, guid: 590c0519b1c09c448ab7764aca6a26ba,
      type: 3}
  - m_RefCount: 1
    m_Data: {fileID: 6613552942930876771, guid: 590c0519b1c09c448ab7764aca6a26ba,
      type: 3}
  - m_RefCount: 1
    m_Data: {fileID: -8226585100685243563, guid: 590c0519b1c09c448ab7764aca6a26ba,
      type: 3}
  - m_RefCount: 1
    m_Data: {fileID: -6557759239180343691, guid: 590c0519b1c09c448ab7764aca6a26ba,
      type: 3}
  - m_RefCount: 1
    m_Data: {fileID: 6461995285404301672, guid: 590c0519b1c09c448ab7764aca6a26ba,
      type: 3}
  m_TileMatrixArray:
  - m_RefCount: 47
    m_Data:
      e00: 1
      e01: 0
      e02: 0
      e03: 0
      e10: 0
      e11: 1
      e12: 0
      e13: 0
      e20: 0
      e21: 0
      e22: 1
      e23: 0
      e30: 0
      e31: 0
      e32: 0
      e33: 1
  m_TileColorArray:
  - m_RefCount: 47
    m_Data: {r: 1, g: 1, b: 1, a: 1}
  m_AnimationFrameRate: 1
  m_Color: {r: 1, g: 1, b: 1, a: 1}
  m_Origin: {x: -1, y: -3, z: 0}
  m_Size: {x: 19, y: 3, z: 1}
  m_TileAnchor: {x: 0.5, y: 0.5, z: 0}
  m_TileOrientation: 0
  m_TileOrientationMatrix:
    e00: 1
    e01: 0
    e02: 0
    e03: 0
    e10: 0
    e11: 1
    e12: 0
    e13: 0
    e20: 0
    e21: 0
    e22: 1
    e23: 0
    e30: 0
    e31: 0
    e32: 0
    e33: 1
--- !u!483693784 &4018195790931627442
TilemapRenderer:
  m_ObjectHideFlags: 0
  m_CorrespondingSourceObject: {fileID: 0}
  m_PrefabInstance: {fileID: 0}
  m_PrefabAsset: {fileID: 0}
  m_GameObject: {fileID: 17803402926698171}
  m_Enabled: 0
  m_CastShadows: 0
  m_ReceiveShadows: 0
  m_DynamicOccludee: 0
  m_MotionVectors: 1
  m_LightProbeUsage: 0
  m_ReflectionProbeUsage: 0
  m_RenderingLayerMask: 1
  m_RendererPriority: 0
  m_Materials:
  - {fileID: 10754, guid: 0000000000000000f000000000000000, type: 0}
  m_StaticBatchInfo:
    firstSubMesh: 0
    subMeshCount: 0
  m_StaticBatchRoot: {fileID: 0}
  m_ProbeAnchor: {fileID: 0}
  m_LightProbeVolumeOverride: {fileID: 0}
  m_ScaleInLightmap: 1
  m_ReceiveGI: 1
  m_PreserveUVs: 0
  m_IgnoreNormalsForChartDetection: 0
  m_ImportantGI: 0
  m_StitchLightmapSeams: 1
  m_SelectedEditorRenderState: 0
  m_MinimumChartSize: 4
  m_AutoUVMaxDistance: 0.5
  m_AutoUVMaxAngle: 89
  m_LightmapParameters: {fileID: 0}
  m_SortingLayerID: 0
  m_SortingLayer: 0
  m_SortingOrder: 0
  m_ChunkSize: {x: 32, y: 32, z: 32}
  m_ChunkCullingBounds: {x: 0, y: 0, z: 0}
  m_MaxChunkCount: 16
  m_MaxFrameAge: 16
  m_SortOrder: 0
  m_Mode: 0
  m_DetectChunkCullingBounds: 0
  m_MaskInteraction: 0
--- !u!1 &2718596050892619519
GameObject:
  m_ObjectHideFlags: 0
  m_CorrespondingSourceObject: {fileID: 0}
  m_PrefabInstance: {fileID: 0}
  m_PrefabAsset: {fileID: 0}
  serializedVersion: 6
  m_Component:
  - component: {fileID: 4605201313800257290}
  - component: {fileID: 8849755777999462494}
  m_Layer: 31
  m_Name: 2_FloorTiles
  m_TagString: Untagged
  m_Icon: {fileID: 0}
  m_NavMeshLayer: 0
  m_StaticEditorFlags: 0
  m_IsActive: 1
--- !u!4 &4605201313800257290
Transform:
  m_ObjectHideFlags: 0
  m_CorrespondingSourceObject: {fileID: 0}
  m_PrefabInstance: {fileID: 0}
  m_PrefabAsset: {fileID: 0}
  m_GameObject: {fileID: 2718596050892619519}
  m_LocalRotation: {x: 0, y: 0, z: 0, w: 1}
  m_LocalPosition: {x: 0, y: 0, z: 0}
  m_LocalScale: {x: 1, y: 1, z: 1}
  m_Children:
  - {fileID: 4340771216180285221}
  m_Father: {fileID: 0}
  m_RootOrder: 0
  m_LocalEulerAnglesHint: {x: 0, y: 0, z: 0}
--- !u!156049354 &8849755777999462494
Grid:
  m_ObjectHideFlags: 0
  m_CorrespondingSourceObject: {fileID: 0}
  m_PrefabInstance: {fileID: 0}
  m_PrefabAsset: {fileID: 0}
  m_GameObject: {fileID: 2718596050892619519}
  m_Enabled: 1
  m_CellSize: {x: 1, y: 1, z: 0}
  m_CellGap: {x: 0, y: 0, z: 0}
  m_CellLayout: 0
  m_CellSwizzle: 0
--- !u!114 &6283746585697144862
MonoBehaviour:
  m_ObjectHideFlags: 0
  m_CorrespondingSourceObject: {fileID: 0}
  m_PrefabInstance: {fileID: 0}
  m_PrefabAsset: {fileID: 0}
  m_GameObject: {fileID: 0}
  m_Enabled: 1
  m_EditorHideFlags: 0
  m_Script: {fileID: 12395, guid: 0000000000000000e000000000000000, type: 0}
  m_Name: Palette Settings
  m_EditorClassIdentifier: 
  cellSizing: 0
