%YAML 1.1
%TAG !u! tag:unity3d.com,2011:
--- !u!1 &8532917542059856289
GameObject:
  m_ObjectHideFlags: 0
  m_CorrespondingSourceObject: {fileID: 0}
  m_PrefabInstance: {fileID: 0}
  m_PrefabAsset: {fileID: 0}
  serializedVersion: 6
  m_Component:
  - component: {fileID: 5917307042886552150}
  - component: {fileID: 5833480395243277413}
  - component: {fileID: 822728336591661329}
  m_Layer: 31
  m_Name: Layer1
  m_TagString: Untagged
  m_Icon: {fileID: 0}
  m_NavMeshLayer: 0
  m_StaticEditorFlags: 0
  m_IsActive: 1
--- !u!4 &5917307042886552150
Transform:
  m_ObjectHideFlags: 0
  m_CorrespondingSourceObject: {fileID: 0}
  m_PrefabInstance: {fileID: 0}
  m_PrefabAsset: {fileID: 0}
  m_GameObject: {fileID: 8532917542059856289}
  m_LocalRotation: {x: -0, y: -0, z: -0, w: 1}
  m_LocalPosition: {x: 0, y: 0, z: 0}
  m_LocalScale: {x: 1, y: 1, z: 1}
  m_Children: []
  m_Father: {fileID: 7263905501979751499}
  m_RootOrder: 0
  m_LocalEulerAnglesHint: {x: 0, y: 0, z: 0}
--- !u!1839735485 &5833480395243277413
Tilemap:
  m_ObjectHideFlags: 0
  m_CorrespondingSourceObject: {fileID: 0}
  m_PrefabInstance: {fileID: 0}
  m_PrefabAsset: {fileID: 0}
  m_GameObject: {fileID: 8532917542059856289}
  m_Enabled: 1
  m_Tiles:
  - first: {x: -1, y: -7, z: 0}
    second:
      m_TileIndex: 88
      m_TileSpriteIndex: 88
      m_TileMatrixIndex: 0
      m_TileColorIndex: 0
      m_ObjectToInstantiate: {fileID: 0}
      m_TileFlags: 1
      m_ColliderType: 1
  - first: {x: 0, y: -7, z: 0}
    second:
      m_TileIndex: 89
      m_TileSpriteIndex: 89
      m_TileMatrixIndex: 0
      m_TileColorIndex: 0
      m_ObjectToInstantiate: {fileID: 0}
      m_TileFlags: 1
      m_ColliderType: 1
  - first: {x: 1, y: -7, z: 0}
    second:
      m_TileIndex: 90
      m_TileSpriteIndex: 90
      m_TileMatrixIndex: 0
      m_TileColorIndex: 0
      m_ObjectToInstantiate: {fileID: 0}
      m_TileFlags: 1
      m_ColliderType: 1
  - first: {x: 2, y: -7, z: 0}
    second:
      m_TileIndex: 91
      m_TileSpriteIndex: 91
      m_TileMatrixIndex: 0
      m_TileColorIndex: 0
      m_ObjectToInstantiate: {fileID: 0}
      m_TileFlags: 1
      m_ColliderType: 1
  - first: {x: 3, y: -7, z: 0}
    second:
      m_TileIndex: 92
      m_TileSpriteIndex: 92
      m_TileMatrixIndex: 0
      m_TileColorIndex: 0
      m_ObjectToInstantiate: {fileID: 0}
      m_TileFlags: 1
      m_ColliderType: 1
  - first: {x: 4, y: -7, z: 0}
    second:
      m_TileIndex: 93
      m_TileSpriteIndex: 93
      m_TileMatrixIndex: 0
      m_TileColorIndex: 0
      m_ObjectToInstantiate: {fileID: 0}
      m_TileFlags: 1
      m_ColliderType: 1
  - first: {x: 5, y: -7, z: 0}
    second:
      m_TileIndex: 94
      m_TileSpriteIndex: 94
      m_TileMatrixIndex: 0
      m_TileColorIndex: 0
      m_ObjectToInstantiate: {fileID: 0}
      m_TileFlags: 1
      m_ColliderType: 1
  - first: {x: -1, y: -6, z: 0}
    second:
      m_TileIndex: 81
      m_TileSpriteIndex: 81
      m_TileMatrixIndex: 0
      m_TileColorIndex: 0
      m_ObjectToInstantiate: {fileID: 0}
      m_TileFlags: 1
      m_ColliderType: 1
  - first: {x: 0, y: -6, z: 0}
    second:
      m_TileIndex: 82
      m_TileSpriteIndex: 82
      m_TileMatrixIndex: 0
      m_TileColorIndex: 0
      m_ObjectToInstantiate: {fileID: 0}
      m_TileFlags: 1
      m_ColliderType: 1
  - first: {x: 1, y: -6, z: 0}
    second:
      m_TileIndex: 83
      m_TileSpriteIndex: 83
      m_TileMatrixIndex: 0
      m_TileColorIndex: 0
      m_ObjectToInstantiate: {fileID: 0}
      m_TileFlags: 1
      m_ColliderType: 1
  - first: {x: 2, y: -6, z: 0}
    second:
      m_TileIndex: 84
      m_TileSpriteIndex: 84
      m_TileMatrixIndex: 0
      m_TileColorIndex: 0
      m_ObjectToInstantiate: {fileID: 0}
      m_TileFlags: 1
      m_ColliderType: 1
  - first: {x: 3, y: -6, z: 0}
    second:
      m_TileIndex: 85
      m_TileSpriteIndex: 85
      m_TileMatrixIndex: 0
      m_TileColorIndex: 0
      m_ObjectToInstantiate: {fileID: 0}
      m_TileFlags: 1
      m_ColliderType: 1
  - first: {x: 4, y: -6, z: 0}
    second:
      m_TileIndex: 86
      m_TileSpriteIndex: 86
      m_TileMatrixIndex: 0
      m_TileColorIndex: 0
      m_ObjectToInstantiate: {fileID: 0}
      m_TileFlags: 1
      m_ColliderType: 1
  - first: {x: 5, y: -6, z: 0}
    second:
      m_TileIndex: 87
      m_TileSpriteIndex: 87
      m_TileMatrixIndex: 0
      m_TileColorIndex: 0
      m_ObjectToInstantiate: {fileID: 0}
      m_TileFlags: 1
      m_ColliderType: 1
  - first: {x: -1, y: -5, z: 0}
    second:
      m_TileIndex: 68
      m_TileSpriteIndex: 68
      m_TileMatrixIndex: 0
      m_TileColorIndex: 0
      m_ObjectToInstantiate: {fileID: 0}
      m_TileFlags: 1
      m_ColliderType: 1
  - first: {x: 0, y: -5, z: 0}
    second:
      m_TileIndex: 69
      m_TileSpriteIndex: 69
      m_TileMatrixIndex: 0
      m_TileColorIndex: 0
      m_ObjectToInstantiate: {fileID: 0}
      m_TileFlags: 1
      m_ColliderType: 1
  - first: {x: 1, y: -5, z: 0}
    second:
      m_TileIndex: 70
      m_TileSpriteIndex: 70
      m_TileMatrixIndex: 0
      m_TileColorIndex: 0
      m_ObjectToInstantiate: {fileID: 0}
      m_TileFlags: 1
      m_ColliderType: 1
  - first: {x: 2, y: -5, z: 0}
    second:
      m_TileIndex: 71
      m_TileSpriteIndex: 71
      m_TileMatrixIndex: 0
      m_TileColorIndex: 0
      m_ObjectToInstantiate: {fileID: 0}
      m_TileFlags: 1
      m_ColliderType: 1
  - first: {x: 3, y: -5, z: 0}
    second:
      m_TileIndex: 72
      m_TileSpriteIndex: 72
      m_TileMatrixIndex: 0
      m_TileColorIndex: 0
      m_ObjectToInstantiate: {fileID: 0}
      m_TileFlags: 1
      m_ColliderType: 1
  - first: {x: 4, y: -5, z: 0}
    second:
      m_TileIndex: 73
      m_TileSpriteIndex: 73
      m_TileMatrixIndex: 0
      m_TileColorIndex: 0
      m_ObjectToInstantiate: {fileID: 0}
      m_TileFlags: 1
      m_ColliderType: 1
  - first: {x: 5, y: -5, z: 0}
    second:
      m_TileIndex: 74
      m_TileSpriteIndex: 74
      m_TileMatrixIndex: 0
      m_TileColorIndex: 0
      m_ObjectToInstantiate: {fileID: 0}
      m_TileFlags: 1
      m_ColliderType: 1
  - first: {x: 6, y: -5, z: 0}
    second:
      m_TileIndex: 75
      m_TileSpriteIndex: 75
      m_TileMatrixIndex: 0
      m_TileColorIndex: 0
      m_ObjectToInstantiate: {fileID: 0}
      m_TileFlags: 1
      m_ColliderType: 1
  - first: {x: 7, y: -5, z: 0}
    second:
      m_TileIndex: 76
      m_TileSpriteIndex: 76
      m_TileMatrixIndex: 0
      m_TileColorIndex: 0
      m_ObjectToInstantiate: {fileID: 0}
      m_TileFlags: 1
      m_ColliderType: 1
  - first: {x: 10, y: -5, z: 0}
    second:
      m_TileIndex: 77
      m_TileSpriteIndex: 77
      m_TileMatrixIndex: 0
      m_TileColorIndex: 0
      m_ObjectToInstantiate: {fileID: 0}
      m_TileFlags: 1
      m_ColliderType: 1
  - first: {x: 11, y: -5, z: 0}
    second:
      m_TileIndex: 78
      m_TileSpriteIndex: 78
      m_TileMatrixIndex: 0
      m_TileColorIndex: 0
      m_ObjectToInstantiate: {fileID: 0}
      m_TileFlags: 1
      m_ColliderType: 1
  - first: {x: 12, y: -5, z: 0}
    second:
      m_TileIndex: 79
      m_TileSpriteIndex: 79
      m_TileMatrixIndex: 0
      m_TileColorIndex: 0
      m_ObjectToInstantiate: {fileID: 0}
      m_TileFlags: 1
      m_ColliderType: 1
  - first: {x: 13, y: -5, z: 0}
    second:
      m_TileIndex: 80
      m_TileSpriteIndex: 80
      m_TileMatrixIndex: 0
      m_TileColorIndex: 0
      m_ObjectToInstantiate: {fileID: 0}
      m_TileFlags: 1
      m_ColliderType: 1
  - first: {x: -1, y: -4, z: 0}
    second:
      m_TileIndex: 53
      m_TileSpriteIndex: 53
      m_TileMatrixIndex: 0
      m_TileColorIndex: 0
      m_ObjectToInstantiate: {fileID: 0}
      m_TileFlags: 1
      m_ColliderType: 1
  - first: {x: 0, y: -4, z: 0}
    second:
      m_TileIndex: 54
      m_TileSpriteIndex: 54
      m_TileMatrixIndex: 0
      m_TileColorIndex: 0
      m_ObjectToInstantiate: {fileID: 0}
      m_TileFlags: 1
      m_ColliderType: 1
  - first: {x: 1, y: -4, z: 0}
    second:
      m_TileIndex: 55
      m_TileSpriteIndex: 55
      m_TileMatrixIndex: 0
      m_TileColorIndex: 0
      m_ObjectToInstantiate: {fileID: 0}
      m_TileFlags: 1
      m_ColliderType: 1
  - first: {x: 2, y: -4, z: 0}
    second:
      m_TileIndex: 56
      m_TileSpriteIndex: 56
      m_TileMatrixIndex: 0
      m_TileColorIndex: 0
      m_ObjectToInstantiate: {fileID: 0}
      m_TileFlags: 1
      m_ColliderType: 1
  - first: {x: 3, y: -4, z: 0}
    second:
      m_TileIndex: 57
      m_TileSpriteIndex: 57
      m_TileMatrixIndex: 0
      m_TileColorIndex: 0
      m_ObjectToInstantiate: {fileID: 0}
      m_TileFlags: 1
      m_ColliderType: 1
  - first: {x: 4, y: -4, z: 0}
    second:
      m_TileIndex: 58
      m_TileSpriteIndex: 58
      m_TileMatrixIndex: 0
      m_TileColorIndex: 0
      m_ObjectToInstantiate: {fileID: 0}
      m_TileFlags: 1
      m_ColliderType: 1
  - first: {x: 5, y: -4, z: 0}
    second:
      m_TileIndex: 59
      m_TileSpriteIndex: 59
      m_TileMatrixIndex: 0
      m_TileColorIndex: 0
      m_ObjectToInstantiate: {fileID: 0}
      m_TileFlags: 1
      m_ColliderType: 1
  - first: {x: 6, y: -4, z: 0}
    second:
      m_TileIndex: 60
      m_TileSpriteIndex: 60
      m_TileMatrixIndex: 0
      m_TileColorIndex: 0
      m_ObjectToInstantiate: {fileID: 0}
      m_TileFlags: 1
      m_ColliderType: 1
  - first: {x: 7, y: -4, z: 0}
    second:
      m_TileIndex: 61
      m_TileSpriteIndex: 61
      m_TileMatrixIndex: 0
      m_TileColorIndex: 0
      m_ObjectToInstantiate: {fileID: 0}
      m_TileFlags: 1
      m_ColliderType: 1
  - first: {x: 8, y: -4, z: 0}
    second:
      m_TileIndex: 62
      m_TileSpriteIndex: 62
      m_TileMatrixIndex: 0
      m_TileColorIndex: 0
      m_ObjectToInstantiate: {fileID: 0}
      m_TileFlags: 1
      m_ColliderType: 1
  - first: {x: 9, y: -4, z: 0}
    second:
      m_TileIndex: 63
      m_TileSpriteIndex: 63
      m_TileMatrixIndex: 0
      m_TileColorIndex: 0
      m_ObjectToInstantiate: {fileID: 0}
      m_TileFlags: 1
      m_ColliderType: 1
  - first: {x: 10, y: -4, z: 0}
    second:
      m_TileIndex: 64
      m_TileSpriteIndex: 64
      m_TileMatrixIndex: 0
      m_TileColorIndex: 0
      m_ObjectToInstantiate: {fileID: 0}
      m_TileFlags: 1
      m_ColliderType: 1
  - first: {x: 11, y: -4, z: 0}
    second:
      m_TileIndex: 65
      m_TileSpriteIndex: 65
      m_TileMatrixIndex: 0
      m_TileColorIndex: 0
      m_ObjectToInstantiate: {fileID: 0}
      m_TileFlags: 1
      m_ColliderType: 1
  - first: {x: 12, y: -4, z: 0}
    second:
      m_TileIndex: 66
      m_TileSpriteIndex: 66
      m_TileMatrixIndex: 0
      m_TileColorIndex: 0
      m_ObjectToInstantiate: {fileID: 0}
      m_TileFlags: 1
      m_ColliderType: 1
  - first: {x: 13, y: -4, z: 0}
    second:
      m_TileIndex: 67
      m_TileSpriteIndex: 67
      m_TileMatrixIndex: 0
      m_TileColorIndex: 0
      m_ObjectToInstantiate: {fileID: 0}
      m_TileFlags: 1
      m_ColliderType: 1
  - first: {x: -1, y: -3, z: 0}
    second:
      m_TileIndex: 34
      m_TileSpriteIndex: 34
      m_TileMatrixIndex: 0
      m_TileColorIndex: 0
      m_ObjectToInstantiate: {fileID: 0}
      m_TileFlags: 1
      m_ColliderType: 1
  - first: {x: 0, y: -3, z: 0}
    second:
      m_TileIndex: 35
      m_TileSpriteIndex: 35
      m_TileMatrixIndex: 0
      m_TileColorIndex: 0
      m_ObjectToInstantiate: {fileID: 0}
      m_TileFlags: 1
      m_ColliderType: 1
  - first: {x: 1, y: -3, z: 0}
    second:
      m_TileIndex: 36
      m_TileSpriteIndex: 36
      m_TileMatrixIndex: 0
      m_TileColorIndex: 0
      m_ObjectToInstantiate: {fileID: 0}
      m_TileFlags: 1
      m_ColliderType: 1
  - first: {x: 2, y: -3, z: 0}
    second:
      m_TileIndex: 37
      m_TileSpriteIndex: 37
      m_TileMatrixIndex: 0
      m_TileColorIndex: 0
      m_ObjectToInstantiate: {fileID: 0}
      m_TileFlags: 1
      m_ColliderType: 1
  - first: {x: 3, y: -3, z: 0}
    second:
      m_TileIndex: 38
      m_TileSpriteIndex: 38
      m_TileMatrixIndex: 0
      m_TileColorIndex: 0
      m_ObjectToInstantiate: {fileID: 0}
      m_TileFlags: 1
      m_ColliderType: 1
  - first: {x: 4, y: -3, z: 0}
    second:
      m_TileIndex: 39
      m_TileSpriteIndex: 39
      m_TileMatrixIndex: 0
      m_TileColorIndex: 0
      m_ObjectToInstantiate: {fileID: 0}
      m_TileFlags: 1
      m_ColliderType: 1
  - first: {x: 5, y: -3, z: 0}
    second:
      m_TileIndex: 40
      m_TileSpriteIndex: 40
      m_TileMatrixIndex: 0
      m_TileColorIndex: 0
      m_ObjectToInstantiate: {fileID: 0}
      m_TileFlags: 1
      m_ColliderType: 1
  - first: {x: 6, y: -3, z: 0}
    second:
      m_TileIndex: 41
      m_TileSpriteIndex: 41
      m_TileMatrixIndex: 0
      m_TileColorIndex: 0
      m_ObjectToInstantiate: {fileID: 0}
      m_TileFlags: 1
      m_ColliderType: 1
  - first: {x: 7, y: -3, z: 0}
    second:
      m_TileIndex: 42
      m_TileSpriteIndex: 42
      m_TileMatrixIndex: 0
      m_TileColorIndex: 0
      m_ObjectToInstantiate: {fileID: 0}
      m_TileFlags: 1
      m_ColliderType: 1
  - first: {x: 8, y: -3, z: 0}
    second:
      m_TileIndex: 43
      m_TileSpriteIndex: 43
      m_TileMatrixIndex: 0
      m_TileColorIndex: 0
      m_ObjectToInstantiate: {fileID: 0}
      m_TileFlags: 1
      m_ColliderType: 1
  - first: {x: 9, y: -3, z: 0}
    second:
      m_TileIndex: 44
      m_TileSpriteIndex: 44
      m_TileMatrixIndex: 0
      m_TileColorIndex: 0
      m_ObjectToInstantiate: {fileID: 0}
      m_TileFlags: 1
      m_ColliderType: 1
  - first: {x: 10, y: -3, z: 0}
    second:
      m_TileIndex: 45
      m_TileSpriteIndex: 45
      m_TileMatrixIndex: 0
      m_TileColorIndex: 0
      m_ObjectToInstantiate: {fileID: 0}
      m_TileFlags: 1
      m_ColliderType: 1
  - first: {x: 11, y: -3, z: 0}
    second:
      m_TileIndex: 46
      m_TileSpriteIndex: 46
      m_TileMatrixIndex: 0
      m_TileColorIndex: 0
      m_ObjectToInstantiate: {fileID: 0}
      m_TileFlags: 1
      m_ColliderType: 1
  - first: {x: 12, y: -3, z: 0}
    second:
      m_TileIndex: 47
      m_TileSpriteIndex: 47
      m_TileMatrixIndex: 0
      m_TileColorIndex: 0
      m_ObjectToInstantiate: {fileID: 0}
      m_TileFlags: 1
      m_ColliderType: 1
  - first: {x: 13, y: -3, z: 0}
    second:
      m_TileIndex: 48
      m_TileSpriteIndex: 48
      m_TileMatrixIndex: 0
      m_TileColorIndex: 0
      m_ObjectToInstantiate: {fileID: 0}
      m_TileFlags: 1
      m_ColliderType: 1
  - first: {x: 14, y: -3, z: 0}
    second:
      m_TileIndex: 49
      m_TileSpriteIndex: 49
      m_TileMatrixIndex: 0
      m_TileColorIndex: 0
      m_ObjectToInstantiate: {fileID: 0}
      m_TileFlags: 1
      m_ColliderType: 1
  - first: {x: 15, y: -3, z: 0}
    second:
      m_TileIndex: 50
      m_TileSpriteIndex: 50
      m_TileMatrixIndex: 0
      m_TileColorIndex: 0
      m_ObjectToInstantiate: {fileID: 0}
      m_TileFlags: 1
      m_ColliderType: 1
  - first: {x: 16, y: -3, z: 0}
    second:
      m_TileIndex: 51
      m_TileSpriteIndex: 51
      m_TileMatrixIndex: 0
      m_TileColorIndex: 0
      m_ObjectToInstantiate: {fileID: 0}
      m_TileFlags: 1
      m_ColliderType: 1
  - first: {x: 17, y: -3, z: 0}
    second:
      m_TileIndex: 52
      m_TileSpriteIndex: 52
      m_TileMatrixIndex: 0
      m_TileColorIndex: 0
      m_ObjectToInstantiate: {fileID: 0}
      m_TileFlags: 1
      m_ColliderType: 1
  - first: {x: -1, y: -2, z: 0}
    second:
      m_TileIndex: 18
      m_TileSpriteIndex: 18
      m_TileMatrixIndex: 0
      m_TileColorIndex: 0
      m_ObjectToInstantiate: {fileID: 0}
      m_TileFlags: 1
      m_ColliderType: 1
  - first: {x: 0, y: -2, z: 0}
    second:
      m_TileIndex: 19
      m_TileSpriteIndex: 19
      m_TileMatrixIndex: 0
      m_TileColorIndex: 0
      m_ObjectToInstantiate: {fileID: 0}
      m_TileFlags: 1
      m_ColliderType: 1
  - first: {x: 1, y: -2, z: 0}
    second:
      m_TileIndex: 20
      m_TileSpriteIndex: 20
      m_TileMatrixIndex: 0
      m_TileColorIndex: 0
      m_ObjectToInstantiate: {fileID: 0}
      m_TileFlags: 1
      m_ColliderType: 1
  - first: {x: 2, y: -2, z: 0}
    second:
      m_TileIndex: 21
      m_TileSpriteIndex: 21
      m_TileMatrixIndex: 0
      m_TileColorIndex: 0
      m_ObjectToInstantiate: {fileID: 0}
      m_TileFlags: 1
      m_ColliderType: 1
  - first: {x: 3, y: -2, z: 0}
    second:
      m_TileIndex: 22
      m_TileSpriteIndex: 22
      m_TileMatrixIndex: 0
      m_TileColorIndex: 0
      m_ObjectToInstantiate: {fileID: 0}
      m_TileFlags: 1
      m_ColliderType: 1
  - first: {x: 4, y: -2, z: 0}
    second:
      m_TileIndex: 23
      m_TileSpriteIndex: 23
      m_TileMatrixIndex: 0
      m_TileColorIndex: 0
      m_ObjectToInstantiate: {fileID: 0}
      m_TileFlags: 1
      m_ColliderType: 1
  - first: {x: 5, y: -2, z: 0}
    second:
      m_TileIndex: 24
      m_TileSpriteIndex: 24
      m_TileMatrixIndex: 0
      m_TileColorIndex: 0
      m_ObjectToInstantiate: {fileID: 0}
      m_TileFlags: 1
      m_ColliderType: 1
  - first: {x: 6, y: -2, z: 0}
    second:
      m_TileIndex: 25
      m_TileSpriteIndex: 25
      m_TileMatrixIndex: 0
      m_TileColorIndex: 0
      m_ObjectToInstantiate: {fileID: 0}
      m_TileFlags: 1
      m_ColliderType: 1
  - first: {x: 7, y: -2, z: 0}
    second:
      m_TileIndex: 26
      m_TileSpriteIndex: 26
      m_TileMatrixIndex: 0
      m_TileColorIndex: 0
      m_ObjectToInstantiate: {fileID: 0}
      m_TileFlags: 1
      m_ColliderType: 1
  - first: {x: 8, y: -2, z: 0}
    second:
      m_TileIndex: 27
      m_TileSpriteIndex: 27
      m_TileMatrixIndex: 0
      m_TileColorIndex: 0
      m_ObjectToInstantiate: {fileID: 0}
      m_TileFlags: 1
      m_ColliderType: 1
  - first: {x: 10, y: -2, z: 0}
    second:
      m_TileIndex: 28
      m_TileSpriteIndex: 28
      m_TileMatrixIndex: 0
      m_TileColorIndex: 0
      m_ObjectToInstantiate: {fileID: 0}
      m_TileFlags: 1
      m_ColliderType: 1
  - first: {x: 11, y: -2, z: 0}
    second:
      m_TileIndex: 29
      m_TileSpriteIndex: 29
      m_TileMatrixIndex: 0
      m_TileColorIndex: 0
      m_ObjectToInstantiate: {fileID: 0}
      m_TileFlags: 1
      m_ColliderType: 1
  - first: {x: 12, y: -2, z: 0}
    second:
      m_TileIndex: 30
      m_TileSpriteIndex: 30
      m_TileMatrixIndex: 0
      m_TileColorIndex: 0
      m_ObjectToInstantiate: {fileID: 0}
      m_TileFlags: 1
      m_ColliderType: 1
  - first: {x: 14, y: -2, z: 0}
    second:
      m_TileIndex: 31
      m_TileSpriteIndex: 31
      m_TileMatrixIndex: 0
      m_TileColorIndex: 0
      m_ObjectToInstantiate: {fileID: 0}
      m_TileFlags: 1
      m_ColliderType: 1
  - first: {x: 16, y: -2, z: 0}
    second:
      m_TileIndex: 32
      m_TileSpriteIndex: 32
      m_TileMatrixIndex: 0
      m_TileColorIndex: 0
      m_ObjectToInstantiate: {fileID: 0}
      m_TileFlags: 1
      m_ColliderType: 1
  - first: {x: 17, y: -2, z: 0}
    second:
      m_TileIndex: 33
      m_TileSpriteIndex: 33
      m_TileMatrixIndex: 0
      m_TileColorIndex: 0
      m_ObjectToInstantiate: {fileID: 0}
      m_TileFlags: 1
      m_ColliderType: 1
  - first: {x: -1, y: -1, z: 0}
    second:
      m_TileIndex: 0
      m_TileSpriteIndex: 0
      m_TileMatrixIndex: 0
      m_TileColorIndex: 0
      m_ObjectToInstantiate: {fileID: 0}
      m_TileFlags: 1
      m_ColliderType: 1
  - first: {x: 0, y: -1, z: 0}
    second:
      m_TileIndex: 1
      m_TileSpriteIndex: 1
      m_TileMatrixIndex: 0
      m_TileColorIndex: 0
      m_ObjectToInstantiate: {fileID: 0}
      m_TileFlags: 1
      m_ColliderType: 1
  - first: {x: 1, y: -1, z: 0}
    second:
      m_TileIndex: 2
      m_TileSpriteIndex: 2
      m_TileMatrixIndex: 0
      m_TileColorIndex: 0
      m_ObjectToInstantiate: {fileID: 0}
      m_TileFlags: 1
      m_ColliderType: 1
  - first: {x: 2, y: -1, z: 0}
    second:
      m_TileIndex: 3
      m_TileSpriteIndex: 3
      m_TileMatrixIndex: 0
      m_TileColorIndex: 0
      m_ObjectToInstantiate: {fileID: 0}
      m_TileFlags: 1
      m_ColliderType: 1
  - first: {x: 3, y: -1, z: 0}
    second:
      m_TileIndex: 4
      m_TileSpriteIndex: 4
      m_TileMatrixIndex: 0
      m_TileColorIndex: 0
      m_ObjectToInstantiate: {fileID: 0}
      m_TileFlags: 1
      m_ColliderType: 1
  - first: {x: 4, y: -1, z: 0}
    second:
      m_TileIndex: 5
      m_TileSpriteIndex: 5
      m_TileMatrixIndex: 0
      m_TileColorIndex: 0
      m_ObjectToInstantiate: {fileID: 0}
      m_TileFlags: 1
      m_ColliderType: 1
  - first: {x: 5, y: -1, z: 0}
    second:
      m_TileIndex: 6
      m_TileSpriteIndex: 6
      m_TileMatrixIndex: 0
      m_TileColorIndex: 0
      m_ObjectToInstantiate: {fileID: 0}
      m_TileFlags: 1
      m_ColliderType: 1
  - first: {x: 6, y: -1, z: 0}
    second:
      m_TileIndex: 7
      m_TileSpriteIndex: 7
      m_TileMatrixIndex: 0
      m_TileColorIndex: 0
      m_ObjectToInstantiate: {fileID: 0}
      m_TileFlags: 1
      m_ColliderType: 1
  - first: {x: 8, y: -1, z: 0}
    second:
      m_TileIndex: 8
      m_TileSpriteIndex: 8
      m_TileMatrixIndex: 0
      m_TileColorIndex: 0
      m_ObjectToInstantiate: {fileID: 0}
      m_TileFlags: 1
      m_ColliderType: 1
  - first: {x: 9, y: -1, z: 0}
    second:
      m_TileIndex: 9
      m_TileSpriteIndex: 9
      m_TileMatrixIndex: 0
      m_TileColorIndex: 0
      m_ObjectToInstantiate: {fileID: 0}
      m_TileFlags: 1
      m_ColliderType: 1
  - first: {x: 10, y: -1, z: 0}
    second:
      m_TileIndex: 10
      m_TileSpriteIndex: 10
      m_TileMatrixIndex: 0
      m_TileColorIndex: 0
      m_ObjectToInstantiate: {fileID: 0}
      m_TileFlags: 1
      m_ColliderType: 1
  - first: {x: 11, y: -1, z: 0}
    second:
      m_TileIndex: 11
      m_TileSpriteIndex: 11
      m_TileMatrixIndex: 0
      m_TileColorIndex: 0
      m_ObjectToInstantiate: {fileID: 0}
      m_TileFlags: 1
      m_ColliderType: 1
  - first: {x: 12, y: -1, z: 0}
    second:
      m_TileIndex: 12
      m_TileSpriteIndex: 12
      m_TileMatrixIndex: 0
      m_TileColorIndex: 0
      m_ObjectToInstantiate: {fileID: 0}
      m_TileFlags: 1
      m_ColliderType: 1
  - first: {x: 13, y: -1, z: 0}
    second:
      m_TileIndex: 13
      m_TileSpriteIndex: 13
      m_TileMatrixIndex: 0
      m_TileColorIndex: 0
      m_ObjectToInstantiate: {fileID: 0}
      m_TileFlags: 1
      m_ColliderType: 1
  - first: {x: 14, y: -1, z: 0}
    second:
      m_TileIndex: 14
      m_TileSpriteIndex: 14
      m_TileMatrixIndex: 0
      m_TileColorIndex: 0
      m_ObjectToInstantiate: {fileID: 0}
      m_TileFlags: 1
      m_ColliderType: 1
  - first: {x: 15, y: -1, z: 0}
    second:
      m_TileIndex: 15
      m_TileSpriteIndex: 15
      m_TileMatrixIndex: 0
      m_TileColorIndex: 0
      m_ObjectToInstantiate: {fileID: 0}
      m_TileFlags: 1
      m_ColliderType: 1
  - first: {x: 16, y: -1, z: 0}
    second:
      m_TileIndex: 16
      m_TileSpriteIndex: 16
      m_TileMatrixIndex: 0
      m_TileColorIndex: 0
      m_ObjectToInstantiate: {fileID: 0}
      m_TileFlags: 1
      m_ColliderType: 1
  - first: {x: 17, y: -1, z: 0}
    second:
      m_TileIndex: 17
      m_TileSpriteIndex: 17
      m_TileMatrixIndex: 0
      m_TileColorIndex: 0
      m_ObjectToInstantiate: {fileID: 0}
      m_TileFlags: 1
      m_ColliderType: 1
  m_AnimatedTiles: {}
  m_TileAssetArray:
  - m_RefCount: 1
    m_Data: {fileID: 11400000, guid: e6923900f60fc79408c7ef3c64179706, type: 2}
  - m_RefCount: 1
    m_Data: {fileID: 11400000, guid: 2128bc60d52e3f24084254bab483eae5, type: 2}
  - m_RefCount: 1
    m_Data: {fileID: 11400000, guid: 0ae3df8b9d3124b41b539afba2bc13a4, type: 2}
  - m_RefCount: 1
    m_Data: {fileID: 11400000, guid: bc95ff16a12242a43a878b306c4e18ef, type: 2}
  - m_RefCount: 1
    m_Data: {fileID: 11400000, guid: c862e7256cedea74e9e04ce17757a3aa, type: 2}
  - m_RefCount: 1
    m_Data: {fileID: 11400000, guid: b6fa2424e944ba247b682ea11b33ac05, type: 2}
  - m_RefCount: 1
    m_Data: {fileID: 11400000, guid: 4661536e28c7ba94e805826c287b398a, type: 2}
  - m_RefCount: 1
    m_Data: {fileID: 11400000, guid: 9e2670f1d50b44943bc115ae34f5adc5, type: 2}
  - m_RefCount: 1
    m_Data: {fileID: 11400000, guid: 967546728e4ad9d4292a9e4b1793de8a, type: 2}
  - m_RefCount: 1
    m_Data: {fileID: 11400000, guid: 2a24daf98b93804448f9efb9ec2dc766, type: 2}
  - m_RefCount: 1
    m_Data: {fileID: 11400000, guid: 252994934a9a6cc438a226f81ad4e1df, type: 2}
  - m_RefCount: 1
    m_Data: {fileID: 11400000, guid: 0ce1cc0f8377b2047a8948f7c1bf500e, type: 2}
  - m_RefCount: 1
    m_Data: {fileID: 11400000, guid: a1c1503039eb9344186a9f102b8acde0, type: 2}
  - m_RefCount: 1
    m_Data: {fileID: 11400000, guid: e8585f03397581747b50cc73602e9bbe, type: 2}
  - m_RefCount: 1
    m_Data: {fileID: 11400000, guid: 22e1c30ebfe3d114997cb586ac4fa44f, type: 2}
  - m_RefCount: 1
    m_Data: {fileID: 11400000, guid: 0ff8692f449b82f4c837ba3add8d9792, type: 2}
  - m_RefCount: 1
    m_Data: {fileID: 11400000, guid: 1d7b610b156c3e444bb483e1fdd2012f, type: 2}
  - m_RefCount: 1
    m_Data: {fileID: 11400000, guid: 2722851a41eb5cc45879f5fe9186d0aa, type: 2}
  - m_RefCount: 1
    m_Data: {fileID: 11400000, guid: 6658db56f55a24e479f4492b2a1e4cc3, type: 2}
  - m_RefCount: 1
    m_Data: {fileID: 11400000, guid: 05410c91b7183784e84caf7f74897fe5, type: 2}
  - m_RefCount: 1
    m_Data: {fileID: 11400000, guid: 595cb966e46855548a951d7a9b457271, type: 2}
  - m_RefCount: 1
    m_Data: {fileID: 11400000, guid: e2be85fb5dec0d94984a967dca069556, type: 2}
  - m_RefCount: 1
    m_Data: {fileID: 11400000, guid: 64c5542fe78bba64c871731582f05a95, type: 2}
  - m_RefCount: 1
    m_Data: {fileID: 11400000, guid: 91f5684122a45014a85b6d88cc01bbc3, type: 2}
  - m_RefCount: 1
    m_Data: {fileID: 11400000, guid: 2c05b5c01f09f45409fc6415405cfd80, type: 2}
  - m_RefCount: 1
    m_Data: {fileID: 11400000, guid: 99c20e9c23198c44faabf98780212c58, type: 2}
  - m_RefCount: 1
    m_Data: {fileID: 11400000, guid: 1657a541a8463da4b8a0f82add5125ea, type: 2}
  - m_RefCount: 1
    m_Data: {fileID: 11400000, guid: 5913945b87fdf914a9762dc91b3f4555, type: 2}
  - m_RefCount: 1
    m_Data: {fileID: 11400000, guid: 1b392161d0ed2f641aa7a56229fd1724, type: 2}
  - m_RefCount: 1
    m_Data: {fileID: 11400000, guid: 1a1e7a7ca9481794f950cab2c9dcc316, type: 2}
  - m_RefCount: 1
    m_Data: {fileID: 11400000, guid: 998e18372a032bf47860e36bb8f0bef9, type: 2}
  - m_RefCount: 1
    m_Data: {fileID: 11400000, guid: ad62b1b64f2d9bb46a61cbf509afa2d9, type: 2}
  - m_RefCount: 1
    m_Data: {fileID: 11400000, guid: 6267c5d1aa33a9b4281a0974545042d4, type: 2}
  - m_RefCount: 1
    m_Data: {fileID: 11400000, guid: 2c2c074639cadbb4585f0d0dca7448eb, type: 2}
  - m_RefCount: 1
    m_Data: {fileID: 11400000, guid: 6d2a898b6e1066447927937d03ae6c62, type: 2}
  - m_RefCount: 1
    m_Data: {fileID: 11400000, guid: 09b863fc1b391d644a8ab9f4ba8a8a74, type: 2}
  - m_RefCount: 1
    m_Data: {fileID: 11400000, guid: 6ef7736d375cfae4e9e1b5d54e4ceeca, type: 2}
  - m_RefCount: 1
    m_Data: {fileID: 11400000, guid: 38b1f8db32234134fa0de4491faf7b13, type: 2}
  - m_RefCount: 1
    m_Data: {fileID: 11400000, guid: 00f3c5aac9fec584da00afeff4d181e4, type: 2}
  - m_RefCount: 1
    m_Data: {fileID: 11400000, guid: e2284ddf517a8d94e80c6dade39cb2a8, type: 2}
  - m_RefCount: 1
    m_Data: {fileID: 11400000, guid: dd4236eba41232c4e9aa65e527a03e98, type: 2}
  - m_RefCount: 1
    m_Data: {fileID: 11400000, guid: 7da20babb0791664d8e581eab82fc821, type: 2}
  - m_RefCount: 1
    m_Data: {fileID: 11400000, guid: 5d17018ac8e7b574e8df25b7b572cbf1, type: 2}
  - m_RefCount: 1
    m_Data: {fileID: 11400000, guid: 58d4091b2507a5f4a854bbf5f9b5fcfe, type: 2}
  - m_RefCount: 1
    m_Data: {fileID: 11400000, guid: 5e601fe1472770a4c859b98200e52d1e, type: 2}
  - m_RefCount: 1
    m_Data: {fileID: 11400000, guid: 07d4fc39bae245247bd98bef30c5385e, type: 2}
  - m_RefCount: 1
    m_Data: {fileID: 11400000, guid: 679f9556ea98ff04e91be1593a153e12, type: 2}
  - m_RefCount: 1
    m_Data: {fileID: 11400000, guid: 747b00ff144b6434a90d3c2426c02a49, type: 2}
  - m_RefCount: 1
    m_Data: {fileID: 11400000, guid: 3568aee50cddda8459acf05f7f23ca19, type: 2}
  - m_RefCount: 1
    m_Data: {fileID: 11400000, guid: f7b79bf25dcc834449edfc1f1c161347, type: 2}
  - m_RefCount: 1
    m_Data: {fileID: 11400000, guid: 67861f5a11f612c46b55da316827996e, type: 2}
  - m_RefCount: 1
    m_Data: {fileID: 11400000, guid: 02964627a9080bb4ba2c1d9c931a2379, type: 2}
  - m_RefCount: 1
    m_Data: {fileID: 11400000, guid: 4e6b56a848b83ed4eaf56bfdc1d26d33, type: 2}
  - m_RefCount: 1
    m_Data: {fileID: 11400000, guid: 4c568af0e8db5b548ab4c5b3eb19ab8b, type: 2}
  - m_RefCount: 1
    m_Data: {fileID: 11400000, guid: 097bc9f8e1fcda24496b750a4c0a799b, type: 2}
  - m_RefCount: 1
    m_Data: {fileID: 11400000, guid: c1f205180b1257d45a464ef53d1e1172, type: 2}
  - m_RefCount: 1
    m_Data: {fileID: 11400000, guid: cc72a390faf5f2b49863022ca405310c, type: 2}
  - m_RefCount: 1
    m_Data: {fileID: 11400000, guid: 18d9be550bdfe5144aab9fe8bdb5d6f1, type: 2}
  - m_RefCount: 1
    m_Data: {fileID: 11400000, guid: 57d93629066b9344e8e13fbbe13b56c1, type: 2}
  - m_RefCount: 1
    m_Data: {fileID: 11400000, guid: eff90321ac883114a8db77ffd027035f, type: 2}
  - m_RefCount: 1
    m_Data: {fileID: 11400000, guid: a51409e6937c1694fb45c58766119bb6, type: 2}
  - m_RefCount: 1
    m_Data: {fileID: 11400000, guid: a5d2d3118ad6b7345b7cd838999b6ab2, type: 2}
  - m_RefCount: 1
    m_Data: {fileID: 11400000, guid: ddd2ed0e2cf789945870329f4fe3f949, type: 2}
  - m_RefCount: 1
    m_Data: {fileID: 11400000, guid: 0817823336c99f9428cb3760afb622e3, type: 2}
  - m_RefCount: 1
    m_Data: {fileID: 11400000, guid: 44ea459ac9e2786498fb5787c5ca8888, type: 2}
  - m_RefCount: 1
    m_Data: {fileID: 11400000, guid: 0c2d1f5f0237ded42978549e2bd1a10e, type: 2}
  - m_RefCount: 1
    m_Data: {fileID: 11400000, guid: f0539963d0b8e58469f82950f32302b1, type: 2}
  - m_RefCount: 1
    m_Data: {fileID: 11400000, guid: f21e11d320af1cc4298bfd05d1e1a154, type: 2}
  - m_RefCount: 1
    m_Data: {fileID: 11400000, guid: 18e515da6302ae34d8e4b067037a0bb1, type: 2}
  - m_RefCount: 1
    m_Data: {fileID: 11400000, guid: 3d13bccadd3c6b745a0fc15b9ce4730c, type: 2}
  - m_RefCount: 1
    m_Data: {fileID: 11400000, guid: 2048edf6ccd9a4b4da3cea9162b40ddc, type: 2}
  - m_RefCount: 1
    m_Data: {fileID: 11400000, guid: 36d8e533077ce694bbeb7661636cdcd5, type: 2}
  - m_RefCount: 1
    m_Data: {fileID: 11400000, guid: 90b54473a98748e42bdeef02467c9525, type: 2}
  - m_RefCount: 1
    m_Data: {fileID: 11400000, guid: 0b137f81515f50f4db78137cc91b14bf, type: 2}
  - m_RefCount: 1
    m_Data: {fileID: 11400000, guid: 65895af5ce9668c43b5b512d244072d6, type: 2}
  - m_RefCount: 1
    m_Data: {fileID: 11400000, guid: 494c8e9dec1cd5d42aa357130f675138, type: 2}
  - m_RefCount: 1
    m_Data: {fileID: 11400000, guid: e71bc24ad00bcc4499111849778d43dd, type: 2}
  - m_RefCount: 1
    m_Data: {fileID: 11400000, guid: a3d8729f2563aee439fd8b5ed0d9a076, type: 2}
  - m_RefCount: 1
    m_Data: {fileID: 11400000, guid: 1a4b2fa60fd865b4297b7a4d4c3c9835, type: 2}
  - m_RefCount: 1
    m_Data: {fileID: 11400000, guid: a6b31a969bfd58c4393cbf5c06f46cb6, type: 2}
  - m_RefCount: 1
    m_Data: {fileID: 11400000, guid: 403968f896237f74190f3459ad60c044, type: 2}
  - m_RefCount: 1
    m_Data: {fileID: 11400000, guid: 80035503ad92cf343aba1049da3e9dfb, type: 2}
  - m_RefCount: 1
    m_Data: {fileID: 11400000, guid: 7143ae95f4dfdf642a7a748c50742c18, type: 2}
  - m_RefCount: 1
    m_Data: {fileID: 11400000, guid: a768ad8ae4b5ee745a2b4a681e1797f8, type: 2}
  - m_RefCount: 1
    m_Data: {fileID: 11400000, guid: ab104ef226c8577499364750c2f28281, type: 2}
  - m_RefCount: 1
    m_Data: {fileID: 11400000, guid: 0b6c775ea9e972646a8690457589575a, type: 2}
  - m_RefCount: 1
    m_Data: {fileID: 11400000, guid: 05b321098cc3a764b87dde0707df0bf4, type: 2}
  - m_RefCount: 1
    m_Data: {fileID: 11400000, guid: 39e1f6a6b6d8f0d44ac096c551e3b742, type: 2}
  - m_RefCount: 1
    m_Data: {fileID: 11400000, guid: 8c439273e9287a54ea12369099f2e3d3, type: 2}
  - m_RefCount: 1
    m_Data: {fileID: 11400000, guid: 042c76265a09c4e40a39b84cbdbb267f, type: 2}
  - m_RefCount: 1
    m_Data: {fileID: 11400000, guid: 6808134ca5b039b48b19bd9738b14680, type: 2}
  - m_RefCount: 1
    m_Data: {fileID: 11400000, guid: 2428b07cd6e97a6459014d5c403d1cf8, type: 2}
  - m_RefCount: 1
    m_Data: {fileID: 11400000, guid: b14cf90d62aa36b458037903e3a90cbd, type: 2}
  - m_RefCount: 1
    m_Data: {fileID: 11400000, guid: 537b13809b3afae49865c0695fbf26f3, type: 2}
  - m_RefCount: 1
    m_Data: {fileID: 11400000, guid: 1d35e9e127930bc449314f4f0b0213d0, type: 2}
  m_TileSpriteArray:
  - m_RefCount: 1
    m_Data: {fileID: -4612703642542435684, guid: 41849c0f763feeb48a5d624028d65072,
      type: 3}
  - m_RefCount: 1
    m_Data: {fileID: 1369069048831284079, guid: 41849c0f763feeb48a5d624028d65072,
      type: 3}
  - m_RefCount: 1
    m_Data: {fileID: 2094582128729487411, guid: 41849c0f763feeb48a5d624028d65072,
      type: 3}
  - m_RefCount: 1
    m_Data: {fileID: -1134926566259290539, guid: 41849c0f763feeb48a5d624028d65072,
      type: 3}
  - m_RefCount: 1
    m_Data: {fileID: -3092504787415899906, guid: 41849c0f763feeb48a5d624028d65072,
      type: 3}
  - m_RefCount: 1
    m_Data: {fileID: -5024012701559836335, guid: 41849c0f763feeb48a5d624028d65072,
      type: 3}
  - m_RefCount: 1
    m_Data: {fileID: -11396404557625801, guid: 41849c0f763feeb48a5d624028d65072, type: 3}
  - m_RefCount: 1
    m_Data: {fileID: 5418268578537610873, guid: 41849c0f763feeb48a5d624028d65072,
      type: 3}
  - m_RefCount: 1
    m_Data: {fileID: -904198322733369868, guid: 41849c0f763feeb48a5d624028d65072,
      type: 3}
  - m_RefCount: 1
    m_Data: {fileID: -2898732569854645412, guid: 41849c0f763feeb48a5d624028d65072,
      type: 3}
  - m_RefCount: 1
    m_Data: {fileID: -3324888008326993684, guid: 41849c0f763feeb48a5d624028d65072,
      type: 3}
  - m_RefCount: 1
    m_Data: {fileID: -7467918186545681860, guid: 41849c0f763feeb48a5d624028d65072,
      type: 3}
  - m_RefCount: 1
    m_Data: {fileID: 8037255022803438096, guid: 41849c0f763feeb48a5d624028d65072,
      type: 3}
  - m_RefCount: 1
    m_Data: {fileID: -6454360154774737454, guid: 41849c0f763feeb48a5d624028d65072,
      type: 3}
  - m_RefCount: 1
    m_Data: {fileID: 2535841084975385722, guid: 41849c0f763feeb48a5d624028d65072,
      type: 3}
  - m_RefCount: 1
    m_Data: {fileID: 8103740545323120865, guid: 41849c0f763feeb48a5d624028d65072,
      type: 3}
  - m_RefCount: 1
    m_Data: {fileID: -2176418870000201366, guid: 41849c0f763feeb48a5d624028d65072,
      type: 3}
  - m_RefCount: 1
    m_Data: {fileID: -8279153137789841325, guid: 41849c0f763feeb48a5d624028d65072,
      type: 3}
  - m_RefCount: 1
    m_Data: {fileID: -2282675380406537137, guid: 41849c0f763feeb48a5d624028d65072,
      type: 3}
  - m_RefCount: 1
    m_Data: {fileID: -4346951372360221672, guid: 41849c0f763feeb48a5d624028d65072,
      type: 3}
  - m_RefCount: 1
    m_Data: {fileID: -4426767356711408047, guid: 41849c0f763feeb48a5d624028d65072,
      type: 3}
  - m_RefCount: 1
    m_Data: {fileID: -4119086147762483247, guid: 41849c0f763feeb48a5d624028d65072,
      type: 3}
  - m_RefCount: 1
    m_Data: {fileID: 3248251014679945567, guid: 41849c0f763feeb48a5d624028d65072,
      type: 3}
  - m_RefCount: 1
    m_Data: {fileID: -2351134455238180713, guid: 41849c0f763feeb48a5d624028d65072,
      type: 3}
  - m_RefCount: 1
    m_Data: {fileID: -1358435288478724350, guid: 41849c0f763feeb48a5d624028d65072,
      type: 3}
  - m_RefCount: 1
    m_Data: {fileID: 6979713689556149491, guid: 41849c0f763feeb48a5d624028d65072,
      type: 3}
  - m_RefCount: 1
    m_Data: {fileID: -5431560644138895964, guid: 41849c0f763feeb48a5d624028d65072,
      type: 3}
  - m_RefCount: 1
    m_Data: {fileID: -970467142636841549, guid: 41849c0f763feeb48a5d624028d65072,
      type: 3}
  - m_RefCount: 1
    m_Data: {fileID: 2890399764510183512, guid: 41849c0f763feeb48a5d624028d65072,
      type: 3}
  - m_RefCount: 1
    m_Data: {fileID: -4714256931604366110, guid: 41849c0f763feeb48a5d624028d65072,
      type: 3}
  - m_RefCount: 1
    m_Data: {fileID: 8775829488445931042, guid: 41849c0f763feeb48a5d624028d65072,
      type: 3}
  - m_RefCount: 1
    m_Data: {fileID: -8646248542703644033, guid: 41849c0f763feeb48a5d624028d65072,
      type: 3}
  - m_RefCount: 1
    m_Data: {fileID: -2722402424510461603, guid: 41849c0f763feeb48a5d624028d65072,
      type: 3}
  - m_RefCount: 1
    m_Data: {fileID: 34864855321952288, guid: 41849c0f763feeb48a5d624028d65072, type: 3}
  - m_RefCount: 1
    m_Data: {fileID: 709827517278632568, guid: 41849c0f763feeb48a5d624028d65072, type: 3}
  - m_RefCount: 1
    m_Data: {fileID: 9136909477360488804, guid: 41849c0f763feeb48a5d624028d65072,
      type: 3}
  - m_RefCount: 1
    m_Data: {fileID: -8568796293248267057, guid: 41849c0f763feeb48a5d624028d65072,
      type: 3}
  - m_RefCount: 1
    m_Data: {fileID: 4805191409296613878, guid: 41849c0f763feeb48a5d624028d65072,
      type: 3}
  - m_RefCount: 1
    m_Data: {fileID: 2339972561111471719, guid: 41849c0f763feeb48a5d624028d65072,
      type: 3}
  - m_RefCount: 1
    m_Data: {fileID: -7330937442008453430, guid: 41849c0f763feeb48a5d624028d65072,
      type: 3}
  - m_RefCount: 1
    m_Data: {fileID: -7265942989688094156, guid: 41849c0f763feeb48a5d624028d65072,
      type: 3}
  - m_RefCount: 1
    m_Data: {fileID: 841894142898231993, guid: 41849c0f763feeb48a5d624028d65072, type: 3}
  - m_RefCount: 1
    m_Data: {fileID: -8257122882114151479, guid: 41849c0f763feeb48a5d624028d65072,
      type: 3}
  - m_RefCount: 1
    m_Data: {fileID: -1576511544478748150, guid: 41849c0f763feeb48a5d624028d65072,
      type: 3}
  - m_RefCount: 1
    m_Data: {fileID: -2137714733064331942, guid: 41849c0f763feeb48a5d624028d65072,
      type: 3}
  - m_RefCount: 1
    m_Data: {fileID: -2678524282097140815, guid: 41849c0f763feeb48a5d624028d65072,
      type: 3}
  - m_RefCount: 1
    m_Data: {fileID: -8971301975783829317, guid: 41849c0f763feeb48a5d624028d65072,
      type: 3}
  - m_RefCount: 1
    m_Data: {fileID: -9169002191409772425, guid: 41849c0f763feeb48a5d624028d65072,
      type: 3}
  - m_RefCount: 1
    m_Data: {fileID: -4165395663529744326, guid: 41849c0f763feeb48a5d624028d65072,
      type: 3}
  - m_RefCount: 1
    m_Data: {fileID: -2061866739930263143, guid: 41849c0f763feeb48a5d624028d65072,
      type: 3}
  - m_RefCount: 1
    m_Data: {fileID: 5840456594228728266, guid: 41849c0f763feeb48a5d624028d65072,
      type: 3}
  - m_RefCount: 1
    m_Data: {fileID: -6319471608330101669, guid: 41849c0f763feeb48a5d624028d65072,
      type: 3}
  - m_RefCount: 1
    m_Data: {fileID: 7418231930081863589, guid: 41849c0f763feeb48a5d624028d65072,
      type: 3}
  - m_RefCount: 1
    m_Data: {fileID: 2249695706058863376, guid: 41849c0f763feeb48a5d624028d65072,
      type: 3}
  - m_RefCount: 1
    m_Data: {fileID: 1369211718183909731, guid: 41849c0f763feeb48a5d624028d65072,
      type: 3}
  - m_RefCount: 1
    m_Data: {fileID: 4234816526804012909, guid: 41849c0f763feeb48a5d624028d65072,
      type: 3}
  - m_RefCount: 1
    m_Data: {fileID: 3187940605891064876, guid: 41849c0f763feeb48a5d624028d65072,
      type: 3}
  - m_RefCount: 1
    m_Data: {fileID: 6836611335425273598, guid: 41849c0f763feeb48a5d624028d65072,
      type: 3}
  - m_RefCount: 1
    m_Data: {fileID: 100052255343016781, guid: 41849c0f763feeb48a5d624028d65072, type: 3}
  - m_RefCount: 1
    m_Data: {fileID: 2654233157752719534, guid: 41849c0f763feeb48a5d624028d65072,
      type: 3}
  - m_RefCount: 1
    m_Data: {fileID: -261866716995638163, guid: 41849c0f763feeb48a5d624028d65072,
      type: 3}
  - m_RefCount: 1
    m_Data: {fileID: 5421283070048406265, guid: 41849c0f763feeb48a5d624028d65072,
      type: 3}
  - m_RefCount: 1
    m_Data: {fileID: -5751966918762052060, guid: 41849c0f763feeb48a5d624028d65072,
      type: 3}
  - m_RefCount: 1
    m_Data: {fileID: -3490737897471864490, guid: 41849c0f763feeb48a5d624028d65072,
      type: 3}
  - m_RefCount: 1
    m_Data: {fileID: 6838812649187880522, guid: 41849c0f763feeb48a5d624028d65072,
      type: 3}
  - m_RefCount: 1
    m_Data: {fileID: 3119597509480443963, guid: 41849c0f763feeb48a5d624028d65072,
      type: 3}
  - m_RefCount: 1
    m_Data: {fileID: 7875852844755627593, guid: 41849c0f763feeb48a5d624028d65072,
      type: 3}
  - m_RefCount: 1
    m_Data: {fileID: -3479438593256092833, guid: 41849c0f763feeb48a5d624028d65072,
      type: 3}
  - m_RefCount: 1
    m_Data: {fileID: -3022243692606391366, guid: 41849c0f763feeb48a5d624028d65072,
      type: 3}
  - m_RefCount: 1
    m_Data: {fileID: -4577747950335528739, guid: 41849c0f763feeb48a5d624028d65072,
      type: 3}
  - m_RefCount: 1
    m_Data: {fileID: -4414145534811443888, guid: 41849c0f763feeb48a5d624028d65072,
      type: 3}
  - m_RefCount: 1
    m_Data: {fileID: 2775692165415753636, guid: 41849c0f763feeb48a5d624028d65072,
      type: 3}
  - m_RefCount: 1
    m_Data: {fileID: 8966559043055856592, guid: 41849c0f763feeb48a5d624028d65072,
      type: 3}
  - m_RefCount: 1
    m_Data: {fileID: -5066742106495963988, guid: 41849c0f763feeb48a5d624028d65072,
      type: 3}
  - m_RefCount: 1
    m_Data: {fileID: -8726644431508450033, guid: 41849c0f763feeb48a5d624028d65072,
      type: 3}
  - m_RefCount: 1
    m_Data: {fileID: 688964510742187601, guid: 41849c0f763feeb48a5d624028d65072, type: 3}
  - m_RefCount: 1
    m_Data: {fileID: -5082109335847445237, guid: 41849c0f763feeb48a5d624028d65072,
      type: 3}
  - m_RefCount: 1
    m_Data: {fileID: -1467291482483433271, guid: 41849c0f763feeb48a5d624028d65072,
      type: 3}
  - m_RefCount: 1
    m_Data: {fileID: 9201185916566706626, guid: 41849c0f763feeb48a5d624028d65072,
      type: 3}
  - m_RefCount: 1
    m_Data: {fileID: -1579467064136294655, guid: 41849c0f763feeb48a5d624028d65072,
      type: 3}
  - m_RefCount: 1
    m_Data: {fileID: -8608818011276031788, guid: 41849c0f763feeb48a5d624028d65072,
      type: 3}
  - m_RefCount: 1
    m_Data: {fileID: -801464310829352652, guid: 41849c0f763feeb48a5d624028d65072,
      type: 3}
  - m_RefCount: 1
    m_Data: {fileID: 7120682987851456097, guid: 41849c0f763feeb48a5d624028d65072,
      type: 3}
  - m_RefCount: 1
    m_Data: {fileID: 7869277050461162514, guid: 41849c0f763feeb48a5d624028d65072,
      type: 3}
  - m_RefCount: 1
    m_Data: {fileID: -3666074977481535698, guid: 41849c0f763feeb48a5d624028d65072,
      type: 3}
  - m_RefCount: 1
    m_Data: {fileID: -8577143924697674889, guid: 41849c0f763feeb48a5d624028d65072,
      type: 3}
  - m_RefCount: 1
    m_Data: {fileID: 6663903221138725350, guid: 41849c0f763feeb48a5d624028d65072,
      type: 3}
  - m_RefCount: 1
    m_Data: {fileID: 4268262913390759582, guid: 41849c0f763feeb48a5d624028d65072,
      type: 3}
  - m_RefCount: 1
    m_Data: {fileID: 847438081064239133, guid: 41849c0f763feeb48a5d624028d65072, type: 3}
  - m_RefCount: 1
    m_Data: {fileID: -5272008930751255342, guid: 41849c0f763feeb48a5d624028d65072,
      type: 3}
  - m_RefCount: 1
    m_Data: {fileID: 447541670648022995, guid: 41849c0f763feeb48a5d624028d65072, type: 3}
  - m_RefCount: 1
    m_Data: {fileID: 5354870889942929540, guid: 41849c0f763feeb48a5d624028d65072,
      type: 3}
  - m_RefCount: 1
    m_Data: {fileID: 3052589617140858330, guid: 41849c0f763feeb48a5d624028d65072,
      type: 3}
  - m_RefCount: 1
    m_Data: {fileID: -2487327634541316489, guid: 41849c0f763feeb48a5d624028d65072,
      type: 3}
  - m_RefCount: 1
    m_Data: {fileID: 4196017234378991161, guid: 41849c0f763feeb48a5d624028d65072,
      type: 3}
  m_TileMatrixArray:
  - m_RefCount: 95
    m_Data:
      e00: 1
      e01: 0
      e02: 0
      e03: 0
      e10: 0
      e11: 1
      e12: 0
      e13: 0
      e20: 0
      e21: 0
      e22: 1
      e23: 0
      e30: 0
      e31: 0
      e32: 0
      e33: 1
  m_TileColorArray:
  - m_RefCount: 95
    m_Data: {r: 1, g: 1, b: 1, a: 1}
  m_AnimationFrameRate: 1
  m_Color: {r: 1, g: 1, b: 1, a: 1}
  m_Origin: {x: -1, y: -7, z: 0}
  m_Size: {x: 19, y: 7, z: 1}
  m_TileAnchor: {x: 0.5, y: 0.5, z: 0}
  m_TileOrientation: 0
  m_TileOrientationMatrix:
    e00: 1
    e01: 0
    e02: 0
    e03: 0
    e10: 0
    e11: 1
    e12: 0
    e13: 0
    e20: 0
    e21: 0
    e22: 1
    e23: 0
    e30: 0
    e31: 0
    e32: 0
    e33: 1
--- !u!483693784 &822728336591661329
TilemapRenderer:
  m_ObjectHideFlags: 0
  m_CorrespondingSourceObject: {fileID: 0}
  m_PrefabInstance: {fileID: 0}
  m_PrefabAsset: {fileID: 0}
  m_GameObject: {fileID: 8532917542059856289}
  m_Enabled: 0
  m_CastShadows: 0
  m_ReceiveShadows: 0
  m_DynamicOccludee: 0
  m_MotionVectors: 1
  m_LightProbeUsage: 0
  m_ReflectionProbeUsage: 0
  m_RenderingLayerMask: 1
  m_RendererPriority: 0
  m_Materials:
  - {fileID: 10754, guid: 0000000000000000f000000000000000, type: 0}
  m_StaticBatchInfo:
    firstSubMesh: 0
    subMeshCount: 0
  m_StaticBatchRoot: {fileID: 0}
  m_ProbeAnchor: {fileID: 0}
  m_LightProbeVolumeOverride: {fileID: 0}
  m_ScaleInLightmap: 1
  m_ReceiveGI: 1
  m_PreserveUVs: 0
  m_IgnoreNormalsForChartDetection: 0
  m_ImportantGI: 0
  m_StitchLightmapSeams: 1
  m_SelectedEditorRenderState: 0
  m_MinimumChartSize: 4
  m_AutoUVMaxDistance: 0.5
  m_AutoUVMaxAngle: 89
  m_LightmapParameters: {fileID: 0}
  m_SortingLayerID: 0
  m_SortingLayer: 0
  m_SortingOrder: 0
  m_ChunkSize: {x: 32, y: 32, z: 32}
  m_ChunkCullingBounds: {x: 0, y: 0, z: 0}
  m_MaxChunkCount: 16
  m_MaxFrameAge: 16
  m_SortOrder: 0
  m_Mode: 0
  m_DetectChunkCullingBounds: 0
  m_MaskInteraction: 0
--- !u!1 &9125503344511711102
GameObject:
  m_ObjectHideFlags: 0
  m_CorrespondingSourceObject: {fileID: 0}
  m_PrefabInstance: {fileID: 0}
  m_PrefabAsset: {fileID: 0}
  serializedVersion: 6
  m_Component:
  - component: {fileID: 7263905501979751499}
  - component: {fileID: 3142735798930593284}
  m_Layer: 31
  m_Name: 3_FloorTiles
  m_TagString: Untagged
  m_Icon: {fileID: 0}
  m_NavMeshLayer: 0
  m_StaticEditorFlags: 0
  m_IsActive: 1
--- !u!4 &7263905501979751499
Transform:
  m_ObjectHideFlags: 0
  m_CorrespondingSourceObject: {fileID: 0}
  m_PrefabInstance: {fileID: 0}
  m_PrefabAsset: {fileID: 0}
  m_GameObject: {fileID: 9125503344511711102}
  m_LocalRotation: {x: 0, y: 0, z: 0, w: 1}
  m_LocalPosition: {x: 0, y: 0, z: 0}
  m_LocalScale: {x: 1, y: 1, z: 1}
  m_Children:
  - {fileID: 5917307042886552150}
  m_Father: {fileID: 0}
  m_RootOrder: 0
  m_LocalEulerAnglesHint: {x: 0, y: 0, z: 0}
--- !u!156049354 &3142735798930593284
Grid:
  m_ObjectHideFlags: 0
  m_CorrespondingSourceObject: {fileID: 0}
  m_PrefabInstance: {fileID: 0}
  m_PrefabAsset: {fileID: 0}
  m_GameObject: {fileID: 9125503344511711102}
  m_Enabled: 1
  m_CellSize: {x: 1, y: 1, z: 0}
  m_CellGap: {x: 0, y: 0, z: 0}
  m_CellLayout: 0
  m_CellSwizzle: 0
--- !u!114 &6770812839286400761
MonoBehaviour:
  m_ObjectHideFlags: 0
  m_CorrespondingSourceObject: {fileID: 0}
  m_PrefabInstance: {fileID: 0}
  m_PrefabAsset: {fileID: 0}
  m_GameObject: {fileID: 0}
  m_Enabled: 1
  m_EditorHideFlags: 0
  m_Script: {fileID: 12395, guid: 0000000000000000e000000000000000, type: 0}
  m_Name: Palette Settings
  m_EditorClassIdentifier: 
  cellSizing: 0
